ID_MUNICIPIO,PAN,MC,PES,RSP,FXM,PRI_PRD,PVEM_PT_MORENA_PANAL,NO_REGISTRADOS,NULOS,LISTA_NOMINAL,TOTAL,Ganador,PARTICIPACION
1,483,763,20,9,17,274,427,1,20,2512,2014,MC,80.17999999999999
2,1515,778,0,1,0,347,205,0,52,4147,2898,PAN,69.88
3,67,583,0,1,2,561,111,0,40,2076,1365,MC,65.75
4,2340,4106,26,206,33,4873,1328,0,253,28919,13165,PRI_PRD,45.519999999999996
5,1325,1900,70,18,26,4016,1291,0,214,14822,8860,PRI_PRD,59.78
6,39757,86520,859,551,1520,60288,28281,74,3045,440894,220895,MC,50.1
7,2847,624,7,3,10,4849,1460,0,220,12646,10020,PRI_PRD,79.23
8,765,626,8,165,39,607,398,2,29,3354,2639,PAN,78.68
9,7613,10540,205,235,626,9408,8651,5,799,85414,38082,MC,44.59
10,2826,3886,36,26,92,2137,2942,2,251,32600,12198,MC,37.419999999999995
11,1910,548,11,16,11,653,1072,0,103,6900,4324,PAN,62.67
12,4008,4858,55,24,249,2031,3640,2,312,39601,15179,MC,38.33
13,955,1380,90,8,10,1941,2036,0,209,9977,6629,PVEM_PT_MORENA_PANAL,66.44
14,1751,1806,44,132,68,12366,4984,0,481,29832,21632,PRI_PRD,72.50999999999999
15,172,219,2,17,0,716,624,0,35,2725,1785,PRI_PRD,65.5
16,342,552,1,8,5,773,626,1,51,3273,2359,PRI_PRD,72.07000000000001
17,3195,1789,16,15,29,8638,5317,4,606,31230,19609,PRI_PRD,62.79
18,12537,29460,666,326,700,14760,12663,29,1349,199018,72490,MC,36.42
19,9198,37196,128,69,301,22568,3581,46,849,107652,73936,MC,68.67999999999999
20,1375,566,5,0,0,1356,353,0,102,5852,3757,PAN,64.2
21,23414,53971,468,407,1011,26173,29616,62,2178,321812,137300,MC,42.66
22,497,3102,24,242,33,2814,619,0,197,13304,7528,MC,56.58
23,742,123,1,0,0,541,85,0,6,2097,1498,PAN,71.44
24,444,257,3,9,2,1700,1678,0,78,5463,4171,PRI_PRD,76.35
25,2998,7396,229,625,187,3484,4619,11,338,46179,19887,MC,43.07
26,52816,113767,1206,768,2010,72183,41576,127,5240,551656,289693,MC,52.51
27,223,215,0,1,2,539,536,0,49,2902,1565,PRI_PRD,53.93
28,1769,2935,80,93,151,1201,1510,3,179,13163,7921,MC,60.18
29,505,350,0,0,2,291,68,0,20,1475,1236,PAN,83.8
30,687,988,16,9,9,2046,411,0,125,6307,4291,PRI_PRD,68.04
31,913,316,0,1,1,1347,227,0,52,3243,2857,PRI_PRD,88.1
32,15015,38949,341,255,711,30064,14398,16,1574,251782,101323,MC,40.239999999999995
33,2124,489,0,8,9,423,501,0,58,4921,3612,PAN,73.4
34,7918,8520,95,151,134,8483,5516,10,975,66567,31802,MC,47.77
35,614,1054,2,2,12,524,923,0,76,4984,3207,MC,64.35
36,385,293,1,1,4,135,595,0,44,1937,1458,PVEM_PT_MORENA_PANAL,75.27000000000001
37,1342,902,6,9,10,648,1833,1,114,6482,4865,PVEM_PT_MORENA_PANAL,75.05
38,508,719,7,5,9,1403,773,0,70,4944,3494,PRI_PRD,70.67
39,3278,7090,49,103,224,8987,4771,5,597,54852,25104,PRI_PRD,45.769999999999996
40,69240,199464,1205,842,2715,204796,55631,224,8718,963019,542835,PRI_PRD,56.37
41,764,339,2,2,3,425,100,0,32,2008,1667,PAN,83.02000000000001
42,7705,6833,74,79,107,3274,5057,4,407,70795,23540,PAN,33.25
43,1064,365,7,53,5,530,871,0,69,5372,2964,PAN,55.169999999999995
44,1329,348,5,6,4,327,353,0,62,3110,2434,PAN,78.25999999999999
45,5418,6424,25,167,87,2302,2052,0,308,29104,16783,MC,57.67
46,5349,8884,47,68,305,4483,3130,6,401,48612,22673,MC,46.64
47,62875,78468,498,386,1299,35935,25349,78,2950,367121,207838,MC,56.61000000000001
48,22731,45428,344,460,940,19927,13645,31,2043,225939,105549,MC,46.72
49,4253,8881,58,38,130,8974,2764,2,446,40354,25546,PRI_PRD,63.3
50,179,239,4,2,5,560,658,0,35,2334,1682,PVEM_PT_MORENA_PANAL,72.07000000000001
51,853,1109,1,7,3,297,801,0,42,3883,3113,MC,80.17
