ID_MUNICIPIO,PAN,PRI,PRD,PVEM,PT,MC,MORENA,PANAL,PES,RSP,FXM,PRI_PRD,PVEM_PT_MORENA_PANAL,PVEM_PT_MORENA,PVEM_PT_PANAL,PVEM_MORENA_PANAL,PT_MORENA_PANAL,PVEM_PT,PVEM_MORENA,PVEM_PANAL,PT_MORENA,PT_PANAL,MORENA_PANAL,TOTAL,Ganador
1,27.1,0.0,0.0,0.0,0.0,31.59,0.0,0.0,1.12,0.0,0.95,15.38,23.85,0.0,0.0,0.0,0.0,0.0,0.0,0.0,0.0,0.0,0,1782.0,MC
2,53.68,0.0,0.0,0.0,0.0,25.63,0.0,0.0,0.0,0.04,0.0,13.34,7.32,0.0,0.0,0.0,0.0,0.0,0.0,0.0,0.0,0.0,0,2474.0,PAN
3,5.06,0.0,0.0,0.0,0.0,43.92,0.0,0.0,0.0,0.08,0.15,42.4,8.39,0.0,0.0,0.0,0.0,0.0,0.0,0.0,0.0,0.0,0,1323.0,MC
4,18.42,0.0,0.0,0.0,0.0,31.28,0.0,0.0,0.21,1.55,0.25,37.04,11.25,0.0,0.0,0.0,0.0,0.0,0.0,0.0,0.0,0.0,0,11605.0,PRI_PRD
5,14.95,0.0,0.0,0.0,0.0,21.46,0.0,0.0,0.79,0.2,0.29,46.98,15.32,0.0,0.0,0.0,0.0,0.0,0.0,0.0,0.0,0.0,0,8852.0,PRI_PRD
6,18.3,0.0,0.0,0.0,0.0,39.52,0.0,0.0,0.41,0.25,0.7,27.47,13.35,0.0,0.0,0.0,0.0,0.0,0.0,0.0,0.0,0.0,0,197740.0,MC
7,28.87,0.0,0.0,0.0,0.0,6.24,0.0,0.0,0.01,0.03,0.1,49.56,15.18,0.0,0.0,0.0,0.0,0.0,0.0,0.0,0.0,0.0,0,9320.0,PRI_PRD
8,30.5,0.0,0.0,0.0,0.0,20.97,0.0,0.0,0.32,6.58,1.56,24.2,15.87,0.0,0.0,0.0,0.0,0.0,0.0,0.0,0.0,0.0,0,2508.0,PAN
9,20.16,0.0,0.0,0.0,0.0,28.85,0.0,0.0,0.53,0.58,1.73,25.36,22.79,0.0,0.0,0.0,0.0,0.0,0.0,0.0,0.0,0.0,0,31824.0,MC
10,23.71,0.0,0.0,0.0,0.0,32.98,0.0,0.0,0.3,0.23,0.84,17.09,24.85,0.0,0.0,0.0,0.0,0.0,0.0,0.0,0.0,0.0,0,10705.0,MC
11,45.16,0.0,0.0,0.0,0.0,13.03,0.0,0.0,0.29,0.36,0.29,15.53,25.35,0.0,0.0,0.0,0.0,0.0,0.0,0.0,0.0,0.0,0,4205.0,PAN
12,27.52,0.0,0.0,0.0,0.0,33.43,0.0,0.0,0.43,0.15,1.55,13.76,23.16,0.0,0.0,0.0,0.0,0.0,0.0,0.0,0.0,0.0,0,7374.0,MC
13,14.9,0.0,0.0,0.0,0.0,21.62,0.0,0.0,1.46,0.08,0.16,29.9,31.87,0.0,0.0,0.0,0.0,0.0,0.0,0.0,0.0,0.0,0,6096.0,PVEM_PT_MORENA_PANAL
14,8.38,0.0,0.0,0.0,0.0,8.65,0.0,0.0,0.2,0.63,0.32,58.44,23.38,0.0,0.0,0.0,0.0,0.0,0.0,0.0,0.0,0.0,0,20461.0,PRI_PRD
15,9.83,0.0,0.0,0.0,0.0,12.51,0.0,0.0,0.11,0.97,0.0,40.91,35.66,0.0,0.0,0.0,0.0,0.0,0.0,0.0,0.0,0.0,0,1750.0,PRI_PRD
16,15.05,0.0,0.0,0.0,0.0,24.97,0.0,0.0,0.05,0.37,0.26,32.18,27.12,0.0,0.0,0.0,0.0,0.0,0.0,0.0,0.0,0.0,0,1914.0,PRI_PRD
17,17.25,0.0,0.0,0.0,0.0,9.97,0.0,0.0,0.1,0.09,0.14,44.94,27.51,0.0,0.0,0.0,0.0,0.0,0.0,0.0,0.0,0.0,0,15767.0,PRI_PRD
18,17.56,0.0,0.0,0.0,0.0,40.91,0.0,0.0,0.95,0.46,0.95,20.92,18.24,0.0,0.0,0.0,0.0,0.0,0.0,0.0,0.0,0.0,0,63815.0,MC
19,12.3,0.0,0.0,0.0,0.0,50.89,0.0,0.0,0.16,0.09,0.39,31.23,4.93,0.0,0.0,0.0,0.0,0.0,0.0,0.0,0.0,0.0,0,69264.0,MC
20,37.55,0.0,0.0,0.0,0.0,15.14,0.0,0.0,0.16,0.0,0.0,37.42,9.74,0.0,0.0,0.0,0.0,0.0,0.0,0.0,0.0,0.0,0,3204.0,PAN
21,17.2,0.0,0.0,0.0,0.0,39.62,0.0,0.0,0.34,0.3,0.75,19.56,22.23,0.0,0.0,0.0,0.0,0.0,0.0,0.0,0.0,0.0,0,118707.0,MC
22,7.06,0.0,0.0,0.0,0.0,42.77,0.0,0.0,0.21,3.39,0.44,38.03,8.1,0.0,0.0,0.0,0.0,0.0,0.0,0.0,0.0,0.0,0,6161.0,MC
23,41.93,0.0,0.0,0.0,0.0,9.5,0.0,0.0,0.08,0.0,0.0,41.93,6.56,0.0,0.0,0.0,0.0,0.0,0.0,0.0,0.0,0.0,0,1295.0,PAN
24,10.69,0.0,0.0,0.0,0.0,6.19,0.0,0.0,0.07,0.22,0.05,40.95,41.84,0.0,0.0,0.0,0.0,0.0,0.0,0.0,0.0,0.0,0,4154.0,PVEM_PT_MORENA_PANAL
25,14.86,0.0,0.0,0.0,0.0,36.14,0.0,0.0,1.1,3.21,0.89,17.22,26.59,0.0,0.0,0.0,0.0,0.0,0.0,0.0,0.0,0.0,0,13995.0,MC
26,18.62,0.0,0.0,0.0,0.0,39.94,0.0,0.0,0.41,0.27,0.7,25.35,14.7,0.0,0.0,0.0,0.0,0.0,0.0,0.0,0.0,0.0,0,255923.0,MC
27,13.04,0.0,0.0,0.0,0.0,15.81,0.0,0.0,0.0,0.0,0.0,36.89,34.26,0.0,0.0,0.0,0.0,0.0,0.0,0.0,0.0,0.0,0,721.0,PRI_PRD
28,24.06,0.0,0.0,0.0,0.0,38.06,0.0,0.0,1.06,1.3,1.79,15.11,18.62,0.0,0.0,0.0,0.0,0.0,0.0,0.0,0.0,0.0,0,4243.0,MC
29,41.53,0.0,0.0,0.0,0.0,28.78,0.0,0.0,0.0,0.0,0.16,23.93,5.59,0.0,0.0,0.0,0.0,0.0,0.0,0.0,0.0,0.0,0,1216.0,PAN
30,16.76,0.0,0.0,0.0,0.0,22.47,0.0,0.0,0.39,0.22,0.22,49.91,10.03,0.0,0.0,0.0,0.0,0.0,0.0,0.0,0.0,0.0,0,4099.0,PRI_PRD
31,32.55,0.0,0.0,0.0,0.0,11.27,0.0,0.0,0.0,0.04,0.04,48.02,8.09,0.0,0.0,0.0,0.0,0.0,0.0,0.0,0.0,0.0,0,2805.0,PRI_PRD
32,14.94,0.0,0.0,0.0,0.0,39.13,0.0,0.0,0.34,0.25,0.71,29.87,14.75,0.0,0.0,0.0,0.0,0.0,0.0,0.0,0.0,0.0,0,91242.0,MC
33,60.57,0.0,0.0,0.0,0.0,13.26,0.0,0.0,0.0,0.26,0.22,11.98,13.71,0.0,0.0,0.0,0.0,0.0,0.0,0.0,0.0,0.0,0,3122.0,PAN
34,25.28,0.0,0.0,0.0,0.0,27.26,0.0,0.0,0.31,0.44,0.42,27.12,19.18,0.0,0.0,0.0,0.0,0.0,0.0,0.0,0.0,0.0,0,28432.0,MC
35,19.59,0.0,0.0,0.0,0.0,33.69,0.0,0.0,0.06,0.06,0.41,16.69,29.49,0.0,0.0,0.0,0.0,0.0,0.0,0.0,0.0,0.0,0,3140.0,MC
36,27.27,0.0,0.0,0.0,0.0,20.75,0.0,0.0,0.07,0.07,0.28,9.56,42.0,0.0,0.0,0.0,0.0,0.0,0.0,0.0,0.0,0.0,0,1412.0,PVEM_PT_MORENA_PANAL
37,26.39,0.0,0.0,0.0,0.0,19.48,0.0,0.0,0.13,0.19,0.22,14.0,39.59,0.0,0.0,0.0,0.0,0.0,0.0,0.0,0.0,0.0,0,4630.0,PVEM_PT_MORENA_PANAL
38,15.32,0.0,0.0,0.0,0.0,20.16,0.0,0.0,0.2,0.16,0.28,40.63,23.25,0.0,0.0,0.0,0.0,0.0,0.0,0.0,0.0,0.0,0,2520.0,PRI_PRD
39,13.43,0.0,0.0,0.0,0.0,29.2,0.0,0.0,0.19,0.4,0.92,36.5,19.34,0.0,0.0,0.0,0.0,0.0,0.0,0.0,0.0,0.0,0,23264.0,PRI_PRD
40,12.91,0.0,0.0,0.0,0.0,37.47,0.0,0.0,0.24,0.17,0.51,38.15,10.55,0.0,0.0,0.0,0.0,0.0,0.0,0.0,0.0,0.0,0,479102.0,PRI_PRD
41,46.7,0.0,0.0,0.0,0.0,20.75,0.0,0.0,0.12,0.12,0.18,26.01,6.12,0.0,0.0,0.0,0.0,0.0,0.0,0.0,0.0,0.0,0,1634.0,PAN
42,32.91,0.0,0.0,0.0,0.0,29.03,0.0,0.0,0.27,0.33,0.45,14.08,22.92,0.0,0.0,0.0,0.0,0.0,0.0,0.0,0.0,0.0,0,19619.0,PAN
43,37.46,0.0,0.0,0.0,0.0,11.74,0.0,0.0,0.08,1.9,0.25,16.72,31.84,0.0,0.0,0.0,0.0,0.0,0.0,0.0,0.0,0.0,0,2368.0,PAN
44,55.54,0.0,0.0,0.0,0.0,14.54,0.0,0.0,0.21,0.25,0.17,13.66,15.63,0.0,0.0,0.0,0.0,0.0,0.0,0.0,0.0,0.0,0,2393.0,PAN
45,32.62,0.0,0.0,0.0,0.0,39.11,0.0,0.0,0.13,1.03,0.53,14.08,12.5,0.0,0.0,0.0,0.0,0.0,0.0,0.0,0.0,0.0,0,15900.0,MC
46,24.11,0.0,0.0,0.0,0.0,39.99,0.0,0.0,0.24,0.33,1.37,20.23,13.73,0.0,0.0,0.0,0.0,0.0,0.0,0.0,0.0,0.0,0,19275.0,MC
47,30.72,0.0,0.0,0.0,0.0,38.03,0.0,0.0,0.24,0.19,0.62,17.55,12.64,0.0,0.0,0.0,0.0,0.0,0.0,0.0,0.0,0.0,0,180894.0,MC
48,22.0,0.0,0.0,0.0,0.0,43.77,0.0,0.0,0.34,0.44,0.91,19.25,13.29,0.0,0.0,0.0,0.0,0.0,0.0,0.0,0.0,0.0,0,93172.0,MC
49,15.86,0.0,0.0,0.0,0.0,33.82,0.0,0.0,0.24,0.16,0.53,35.62,13.77,0.0,0.0,0.0,0.0,0.0,0.0,0.0,0.0,0.0,0,22282.0,PRI_PRD
50,10.87,0.0,0.0,0.0,0.0,14.51,0.0,0.0,0.24,0.12,0.3,34.0,39.95,0.0,0.0,0.0,0.0,0.0,0.0,0.0,0.0,0.0,0,1647.0,PVEM_PT_MORENA_PANAL
51,27.87,0.0,0.0,0.0,0.0,35.85,0.0,0.0,0.03,0.23,0.1,9.72,26.2,0.0,0.0,0.0,0.0,0.0,0.0,0.0,0.0,0.0,0,3054.0,MC
