ID_AYUNTAMIENTONL,PAN,PRI,PRD,PVEM,PT,MC,MORENA,PANAL,PES,RSP,FXM,CI_1,CI_2,PRI_PRD,PVEM_PT_MORENA_PANAL,PVEM_PT_MORENA,PVEM_PT_PANAL,PVEM_MORENA_PANAL,PT_MORENA_PANAL,PVEM_PT,PVEM_MORENA,PVEM_PANAL,PT_MORENA,PT_PANAL,MORENA_PANAL,JHHNL,VFNL,TOTAL,Ganador
1,540.0,31.0,0.0,514.0,123.0,424.0,0.0,0.0,0.0,0.0,0.0,358.0,0.0,0.0,0.0,0,0,0,0,0,0,0,0,0,0,0.0,0.0,1990.0,PAN
2,1592.0,0.0,0.0,0.0,0.0,653.0,24.0,0.0,0.0,2.0,0.0,0.0,0.0,122.0,0.0,0,0,0,0,0,0,0,0,0,0,0.0,1.0,2393.0,PAN
3,6.0,0.0,0.0,0.0,0.0,647.0,0.0,0.0,0.0,0.0,0.0,0.0,0.0,583.0,85.0,0,0,0,0,0,0,0,0,0,0,1.0,1.0,1321.0,MC
4,3302.0,5701.0,27.0,138.0,141.0,1186.0,598.0,192.0,0.0,1130.0,0.0,0.0,0.0,0.0,0.0,0,0,0,0,0,0,0,0,0,0,0.0,0.0,12415.0,PRI
5,590.0,0.0,0.0,0.0,0.0,86.0,0.0,0.0,0.0,0.0,0.0,2627.0,0.0,4602.0,472.0,0,0,0,0,0,0,0,0,0,0,1.0,1.0,8377.0,PRI_PRD
6,20246.0,0.0,0.0,1668.0,1555.0,19277.0,18032.0,801.0,993.0,572.0,801.0,0.0,0.0,131156.0,0.0,0,0,0,0,0,0,0,0,0,0,0.0,1.0,195101.0,PRI_PRD
7,3460.0,0.0,0.0,0.0,0.0,24.0,0.0,0.0,0.0,0.0,0.0,0.0,0.0,5085.0,1273.0,0,0,0,0,0,0,0,0,0,0,1.0,1.0,9842.0,PRI_PRD
8,913.0,576.0,6.0,0.0,0.0,15.0,0.0,0.0,0.0,833.0,99.0,0.0,0.0,0.0,161.0,0,0,0,0,0,0,0,0,0,0,1.0,0.0,2603.0,PAN
9,13934.0,0.0,0.0,0.0,0.0,1522.0,0.0,0.0,386.0,656.0,2200.0,0.0,0.0,8588.0,6656.0,0,0,0,0,0,0,0,0,0,0,1.0,1.0,33942.0,PAN
10,3194.0,0.0,0.0,2030.0,677.0,875.0,1074.0,93.0,0.0,0.0,48.0,328.0,0.0,1147.0,0.0,0,0,0,0,0,0,0,0,0,0,0.0,1.0,9466.0,PAN
11,2333.0,0.0,0.0,0.0,0.0,51.0,0.0,0.0,0.0,17.0,0.0,0.0,0.0,236.0,1593.0,0,0,0,0,0,0,0,0,0,0,1.0,1.0,4230.0,PAN
12,1992.0,0.0,0.0,0.0,0.0,289.0,0.0,0.0,0.0,17.0,357.0,0.0,0.0,782.0,3362.0,0,0,0,0,0,0,0,0,0,0,1.0,1.0,6799.0,PVEM_PT_MORENA_PANAL
13,67.0,1377.0,15.0,85.0,44.0,119.0,148.0,1416.0,0.0,0.0,0.0,1597.0,0.0,0.0,0.0,0,0,0,0,0,0,0,0,0,0,0.0,0.0,4868.0,CI_1
14,1036.0,0.0,0.0,142.0,0.0,337.0,6483.0,0.0,0.0,192.0,0.0,0.0,0.0,12868.0,0.0,0,0,0,0,0,0,0,0,0,0,0.0,1.0,21058.0,PRI_PRD
15,83.0,0.0,0.0,8.0,0.0,7.0,0.0,685.0,0.0,41.0,0.0,0.0,0.0,662.0,0.0,0,0,0,0,0,0,0,0,0,0,0.0,1.0,1486.0,PANAL
16,192.0,0.0,0.0,34.0,508.0,23.0,0.0,398.0,0.0,0.0,0.0,0.0,0.0,765.0,0.0,0,0,0,0,0,0,0,0,0,0,0.0,1.0,1920.0,PRI_PRD
17,2106.0,0.0,0.0,0.0,0.0,275.0,0.0,0.0,0.0,17.0,0.0,0.0,0.0,7676.0,6602.0,0,0,0,0,0,0,0,0,0,0,1.0,1.0,16676.0,PRI_PRD
18,7212.0,0.0,0.0,993.0,999.0,9348.0,8689.0,512.0,894.0,999.0,548.0,15252.0,9637.0,7230.0,0.0,0,0,0,0,0,0,0,0,0,0,0.0,1.0,62313.0,CI_1
19,21768.0,0.0,0.0,0.0,0.0,1862.0,0.0,0.0,0.0,36.0,73.0,37534.0,0.0,2153.0,1861.0,0,0,0,0,0,0,0,0,0,0,1.0,1.0,65287.0,CI_1
20,1915.0,0.0,0.0,0.0,0.0,14.0,0.0,0.0,0.0,0.0,0.0,0.0,0.0,1720.0,50.0,0,0,0,0,0,0,0,0,0,0,1.0,1.0,3699.0,PAN
21,31967.0,0.0,0.0,0.0,0.0,25512.0,0.0,0.0,0.0,924.0,1194.0,0.0,0.0,21639.0,36460.0,0,0,0,0,0,0,0,0,0,0,1.0,1.0,117696.0,PVEM_PT_MORENA_PANAL
22,0.0,0.0,0.0,0.0,0.0,2664.0,0.0,0.0,0.0,510.0,24.0,0.0,0.0,2695.0,605.0,0,0,0,0,0,0,0,0,0,0,1.0,1.0,6498.0,PRI_PRD
23,893.0,0.0,0.0,0.0,0.0,0.0,0.0,0.0,0.0,0.0,0.0,0.0,0.0,603.0,13.0,0,0,0,0,0,0,0,0,0,0,1.0,1.0,1509.0,PAN
24,327.0,0.0,0.0,0.0,0.0,0.0,0.0,0.0,0.0,17.0,0.0,0.0,0.0,1812.0,1947.0,0,0,0,0,0,0,0,0,0,0,1.0,1.0,4103.0,PVEM_PT_MORENA_PANAL
25,2409.0,2560.0,111.0,367.0,1765.0,1028.0,1846.0,116.0,709.0,3637.0,187.0,0.0,0.0,0.0,0.0,0,0,0,0,0,0,0,0,0,0,0.0,0.0,14735.0,RSP
26,75982.0,75483.0,2170.0,7596.0,5096.0,43553.0,37296.0,3356.0,1767.0,947.0,1407.0,0.0,0.0,0.0,0.0,0,0,0,0,0,0,0,0,0,0,0.0,0.0,254653.0,PAN
27,71.0,0.0,0.0,301.0,0.0,37.0,0.0,52.0,0.0,0.0,0.0,0.0,0.0,264.0,0.0,0,0,0,0,0,0,0,0,0,0,0.0,1.0,725.0,PVEM
28,639.0,0.0,0.0,378.0,18.0,1116.0,0.0,132.0,37.0,404.0,128.0,979.0,0.0,518.0,0.0,0,0,0,0,0,0,0,0,0,0,0.0,1.0,4349.0,MC
29,757.0,0.0,0.0,0.0,0.0,0.0,0.0,0.0,0.0,0.0,0.0,0.0,0.0,464.0,8.0,0,0,0,0,0,0,0,0,0,0,1.0,1.0,1229.0,PAN
30,71.0,0.0,0.0,5.0,70.0,0.0,0.0,17.0,0.0,13.0,0.0,1984.0,0.0,2033.0,0.0,0,0,0,0,0,0,0,0,0,0,0.0,1.0,4193.0,PRI_PRD
31,1238.0,0.0,0.0,0.0,0.0,0.0,0.0,0.0,0.0,0.0,0.0,0.0,0.0,1578.0,13.0,0,0,0,0,0,0,0,0,0,0,1.0,1.0,2829.0,PRI_PRD
32,20132.0,0.0,0.0,0.0,0.0,19035.0,0.0,0.0,630.0,245.0,921.0,0.0,0.0,33935.0,15864.0,0,0,0,0,0,0,0,0,0,0,1.0,1.0,90762.0,PRI_PRD
33,2672.0,0.0,0.0,0.0,0.0,108.0,0.0,0.0,0.0,0.0,0.0,0.0,0.0,132.0,718.0,0,0,0,0,0,0,0,0,0,0,1.0,1.0,3630.0,PAN
34,8556.0,0.0,0.0,276.0,424.0,2479.0,3512.0,419.0,0.0,202.0,0.0,5431.0,0.0,4460.0,0.0,0,0,0,0,0,0,0,0,0,0,0.0,1.0,25759.0,PAN
35,593.0,0.0,0.0,2234.0,0.0,0.0,0.0,11.0,0.0,0.0,0.0,0.0,0.0,306.0,0.0,0,0,0,0,0,0,0,0,0,0,0.0,1.0,3144.0,PVEM
36,392.0,0.0,0.0,0.0,0.0,110.0,0.0,0.0,0.0,0.0,0.0,0.0,0.0,9.0,930.0,0,0,0,0,0,0,0,0,0,0,1.0,1.0,1441.0,PVEM_PT_MORENA_PANAL
37,1228.0,0.0,0.0,1192.0,9.0,843.0,1077.0,0.0,0.0,0.0,0.0,0.0,0.0,371.0,0.0,0,0,0,0,0,0,0,0,0,0,0.0,1.0,4720.0,PAN
38,210.0,0.0,0.0,850.0,0.0,0.0,0.0,2.0,0.0,0.0,0.0,123.0,0.0,1563.0,0.0,0,0,0,0,0,0,0,0,0,0,0.0,1.0,2748.0,PRI_PRD
39,3401.0,0.0,0.0,0.0,0.0,3578.0,0.0,0.0,0.0,147.0,141.0,869.0,0.0,8565.0,5857.0,0,0,0,0,0,0,0,0,0,0,1.0,1.0,22558.0,PRI_PRD
40,39245.0,0.0,0.0,0.0,0.0,230044.0,0.0,0.0,1213.0,1684.0,1249.0,1576.0,0.0,152257.0,50174.0,0,0,0,0,0,0,0,0,0,0,1.0,1.0,477442.0,MC
41,852.0,0.0,0.0,0.0,0.0,0.0,0.0,0.0,0.0,0.0,0.0,0.0,0.0,729.0,28.0,0,0,0,0,0,0,0,0,0,0,1.0,1.0,1609.0,PAN
42,9004.0,0.0,0.0,0.0,0.0,1606.0,0.0,0.0,0.0,143.0,0.0,0.0,0.0,2823.0,6108.0,0,0,0,0,0,0,0,0,0,0,1.0,1.0,19684.0,PAN
43,1021.0,0.0,0.0,0.0,0.0,0.0,0.0,0.0,0.0,80.0,0.0,0.0,0.0,321.0,1066.0,0,0,0,0,0,0,0,0,0,0,1.0,1.0,2488.0,PVEM_PT_MORENA_PANAL
44,1533.0,0.0,0.0,0.0,0.0,17.0,0.0,0.0,0.0,0.0,0.0,0.0,0.0,205.0,382.0,0,0,0,0,0,0,0,0,0,0,1.0,1.0,2137.0,PAN
45,4602.0,0.0,0.0,0.0,0.0,8079.0,0.0,0.0,0.0,516.0,28.0,0.0,0.0,790.0,1669.0,0,0,0,0,0,0,0,0,0,0,1.0,1.0,15684.0,MC
46,5300.0,0.0,0.0,0.0,0.0,6630.0,0.0,0.0,0.0,98.0,588.0,367.0,0.0,3714.0,2073.0,0,0,0,0,0,0,0,0,0,0,1.0,1.0,18770.0,MC
47,105030.0,0.0,0.0,0.0,0.0,27672.0,0.0,0.0,0.0,530.0,1268.0,1637.0,0.0,19278.0,26031.0,0,0,0,0,0,0,0,0,0,0,1.0,1.0,181446.0,PAN
48,49810.0,0.0,0.0,0.0,0.0,15120.0,0.0,0.0,583.0,1163.0,2041.0,0.0,0.0,10107.0,14770.0,0,0,0,0,0,0,0,0,0,0,1.0,1.0,93594.0,PAN
49,3004.0,0.0,0.0,0.0,0.0,546.0,0.0,0.0,101.0,34.0,0.0,5240.0,0.0,7681.0,4194.0,0,0,0,0,0,0,0,0,0,0,1.0,1.0,20800.0,PRI_PRD
50,38.0,0.0,0.0,0.0,0.0,0.0,0.0,0.0,0.0,0.0,0.0,0.0,0.0,679.0,945.0,0,0,0,0,0,0,0,0,0,0,1.0,1.0,1662.0,PVEM_PT_MORENA_PANAL
51,889.0,0.0,0.0,1086.0,1.0,984.0,14.0,0.0,0.0,5.0,0.0,0.0,0.0,85.0,0.0,0,0,0,0,0,0,0,0,0,0,0.0,1.0,3064.0,PVEM
