ID_ESTADODISTRITO,PAN,PRI,PRD,PVEM,PT,MC,MORENA,PES,RSP,FXM,CAND_IND_1,CAND_IND_2,CAND_IND_3,PAN-PRI-PRD,PAN-PRI,PAN-PRD,PRI-PRD,PVEM-PT-MORENA,PVEM-PT,PVEM-MORENA,PT-MORENA,JHH,VXM,TOTAL,Ganador
101,0.0,0.0,0.0,11666.0,7162.0,6395.0,47209.0,3150.0,2176.0,8462.0,0.0,0.0,0.0,93320.0,0,0,0,0.0,0,0,0,0.0,1.0,179540.0,PAN-PRI-PRD
102,61844.0,9852.0,3405.0,0.0,0.0,6007.0,0.0,2406.0,1037.0,2710.0,0.0,0.0,0.0,0.0,0,0,0,45656.0,0,0,0,1.0,0.0,132917.0,PAN
103,100237.0,12878.0,2648.0,0.0,0.0,6891.0,0.0,2156.0,928.0,3041.0,0.0,0.0,0.0,0.0,0,0,0,44480.0,0,0,0,1.0,0.0,173259.0,PAN
201,0.0,0.0,0.0,0.0,0.0,7857.0,0.0,18569.0,1430.0,2408.0,0.0,0.0,0.0,29693.0,0,0,0,59467.0,0,0,0,1.0,1.0,119424.0,PVEM-PT-MORENA
202,30528.0,8705.0,1373.0,2524.0,1677.0,7419.0,53163.0,20681.0,2092.0,2329.0,0.0,0.0,0.0,0.0,0,0,0,0.0,0,0,0,0.0,0.0,130491.0,MORENA
203,0.0,0.0,0.0,0.0,0.0,5139.0,0.0,17090.0,3714.0,14295.0,0.0,0.0,0.0,27177.0,0,0,0,62397.0,0,0,0,1.0,1.0,129812.0,PVEM-PT-MORENA
204,0.0,0.0,0.0,3454.0,3934.0,5045.0,66740.0,16334.0,1674.0,2196.0,0.0,0.0,0.0,15303.0,0,0,0,0.0,0,0,0,0.0,1.0,114680.0,MORENA
205,0.0,0.0,0.0,3388.0,2934.0,6005.0,54806.0,24366.0,2249.0,2822.0,0.0,0.0,0.0,39808.0,0,0,0,0.0,0,0,0,0.0,1.0,136378.0,MORENA
206,0.0,0.0,0.0,3168.0,1711.0,5390.0,49326.0,24016.0,1516.0,2278.0,0.0,0.0,0.0,32585.0,0,0,0,0.0,0,0,0,0.0,1.0,119990.0,MORENA
207,0.0,0.0,0.0,0.0,0.0,6388.0,0.0,19947.0,2884.0,5502.0,0.0,0.0,0.0,21421.0,0,0,0,59818.0,0,0,0,1.0,1.0,115960.0,PVEM-PT-MORENA
208,0.0,0.0,0.0,0.0,0.0,4120.0,0.0,19413.0,1244.0,2001.0,0.0,0.0,0.0,19492.0,0,0,0,59489.0,0,0,0,1.0,1.0,105759.0,PVEM-PT-MORENA
301,0.0,0.0,0.0,0.0,0.0,5069.0,0.0,3055.0,1482.0,4038.0,0.0,0.0,0.0,62604.0,0,0,0,63538.0,0,0,0,1.0,1.0,139786.0,PVEM-PT-MORENA
302,0.0,0.0,0.0,0.0,0.0,3388.0,0.0,2438.0,2563.0,5258.0,0.0,0.0,0.0,39558.0,0,0,0,53825.0,0,0,0,1.0,1.0,107030.0,PVEM-PT-MORENA
401,0.0,0.0,0.0,2945.0,3898.0,45824.0,75982.0,1845.0,2878.0,1397.0,0.0,0.0,0.0,66741.0,0,0,0,0.0,0,0,0,0.0,1.0,201510.0,MORENA
402,0.0,0.0,0.0,2342.0,3027.0,26719.0,81164.0,1407.0,1573.0,730.0,0.0,0.0,0.0,58141.0,0,0,0,0.0,0,0,0,0.0,1.0,175103.0,MORENA
501,20318.0,54849.0,951.0,0.0,0.0,2996.0,0.0,1711.0,985.0,2388.0,0.0,0.0,0.0,0.0,0,0,0,87728.0,0,0,0,1.0,0.0,171926.0,PVEM-PT-MORENA
502,18041.0,74788.0,1984.0,0.0,0.0,3232.0,0.0,1891.0,860.0,3097.0,0.0,0.0,0.0,0.0,0,0,0,86272.0,0,0,0,1.0,0.0,190165.0,PVEM-PT-MORENA
503,52357.0,58532.0,953.0,0.0,0.0,5161.0,0.0,1093.0,556.0,7883.0,0.0,0.0,0.0,0.0,0,0,0,55267.0,0,0,0,1.0,0.0,181802.0,PRI
504,19272.0,87092.0,1100.0,0.0,0.0,3649.0,0.0,1068.0,482.0,1472.0,0.0,0.0,0.0,0.0,0,0,0,60080.0,0,0,0,1.0,0.0,174215.0,PRI
505,42243.0,72188.0,1061.0,0.0,0.0,1769.0,0.0,717.0,612.0,1379.0,0.0,0.0,0.0,0.0,0,0,0,62812.0,0,0,0,1.0,0.0,182781.0,PRI
506,22266.0,79278.0,2538.0,0.0,0.0,2133.0,0.0,1084.0,683.0,5394.0,0.0,0.0,0.0,0.0,0,0,0,71522.0,0,0,0,1.0,0.0,184898.0,PRI
507,12773.0,76827.0,6003.0,3284.0,1930.0,4327.0,58415.0,1575.0,744.0,4831.0,0.0,0.0,0.0,0.0,0,0,0,0.0,0,0,0,0.0,0.0,170709.0,PRI
601,0.0,0.0,0.0,20087.0,3901.0,28725.0,45176.0,3569.0,1674.0,4414.0,0.0,0.0,0.0,49375.0,0,0,0,0.0,0,0,0,0.0,1.0,156921.0,PAN-PRI-PRD
602,0.0,0.0,0.0,29300.0,3293.0,9329.0,44467.0,5316.0,1397.0,4911.0,0.0,0.0,0.0,29292.0,0,0,0,0.0,0,0,0,0.0,1.0,127305.0,MORENA
701,0.0,0.0,0.0,0.0,0.0,4057.0,0.0,9102.0,12776.0,2253.0,0.0,0.0,0.0,13574.0,0,0,0,133477.0,0,0,0,1.0,1.0,175239.0,PVEM-PT-MORENA
702,0.0,0.0,0.0,0.0,0.0,2573.0,0.0,11840.0,2569.0,4086.0,0.0,0.0,0.0,53694.0,0,0,0,80617.0,0,0,0,1.0,1.0,155379.0,PVEM-PT-MORENA
703,0.0,0.0,0.0,55394.0,20222.0,2404.0,69202.0,3829.0,4206.0,1231.0,0.0,0.0,0.0,4963.0,0,0,0,0.0,0,0,0,0.0,1.0,161451.0,MORENA
704,0.0,0.0,0.0,35905.0,9694.0,5261.0,67269.0,9375.0,6344.0,2421.0,0.0,0.0,0.0,33661.0,0,0,0,0.0,0,0,0,0.0,1.0,169930.0,MORENA
705,0.0,0.0,0.0,0.0,0.0,5874.0,0.0,9786.0,5993.0,3151.0,0.0,0.0,0.0,70172.0,0,0,0,64287.0,0,0,0,1.0,1.0,159263.0,PAN-PRI-PRD
706,0.0,0.0,0.0,0.0,0.0,9609.0,0.0,5901.0,4685.0,4224.0,0.0,0.0,0.0,30295.0,0,0,0,110654.0,0,0,0,1.0,1.0,165368.0,PVEM-PT-MORENA
707,0.0,0.0,0.0,0.0,0.0,3542.0,0.0,12283.0,10958.0,3052.0,0.0,0.0,0.0,21783.0,0,0,0,109050.0,0,0,0,1.0,1.0,160668.0,PVEM-PT-MORENA
708,0.0,0.0,0.0,0.0,0.0,5284.0,0.0,6061.0,3675.0,2670.0,0.0,0.0,0.0,28317.0,0,0,0,102604.0,0,0,0,1.0,1.0,148611.0,PVEM-PT-MORENA
709,0.0,0.0,0.0,0.0,0.0,14465.0,0.0,4630.0,6457.0,2351.0,0.0,0.0,0.0,34944.0,0,0,0,65176.0,0,0,0,1.0,1.0,128023.0,PVEM-PT-MORENA
710,0.0,0.0,0.0,0.0,0.0,3366.0,0.0,12989.0,2204.0,1953.0,0.0,0.0,0.0,15644.0,0,0,0,111661.0,0,0,0,1.0,1.0,147817.0,PVEM-PT-MORENA
711,0.0,0.0,0.0,0.0,0.0,2687.0,0.0,25877.0,2527.0,1731.0,0.0,0.0,0.0,15261.0,0,0,0,91757.0,0,0,0,1.0,1.0,139840.0,PVEM-PT-MORENA
712,0.0,0.0,0.0,20204.0,10623.0,3913.0,67594.0,8487.0,4581.0,1852.0,0.0,0.0,0.0,28930.0,0,0,0,0.0,0,0,0,0.0,1.0,146184.0,MORENA
713,0.0,0.0,0.0,0.0,0.0,3054.0,0.0,14990.0,8282.0,1359.0,0.0,0.0,0.0,22219.0,0,0,0,101115.0,0,0,0,1.0,1.0,151019.0,PVEM-PT-MORENA
801,0.0,0.0,0.0,3208.0,2045.0,7793.0,52182.0,2263.0,867.0,1716.0,0.0,0.0,0.0,25943.0,0,0,0,0.0,0,0,0,0.0,1.0,96017.0,MORENA
802,0.0,0.0,0.0,0.0,0.0,9767.0,0.0,2690.0,761.0,2194.0,0.0,0.0,0.0,40838.0,0,0,0,56321.0,0,0,0,1.0,1.0,112571.0,PVEM-PT-MORENA
803,0.0,0.0,0.0,0.0,0.0,6944.0,0.0,2569.0,731.0,1735.0,0.0,0.0,0.0,25124.0,0,0,0,52653.0,0,0,0,1.0,1.0,89756.0,PVEM-PT-MORENA
804,0.0,0.0,0.0,0.0,0.0,9797.0,0.0,2993.0,1488.0,2239.0,0.0,0.0,0.0,69295.0,0,0,0,59372.0,0,0,0,1.0,1.0,145184.0,PAN-PRI-PRD
805,0.0,0.0,0.0,0.0,0.0,17446.0,0.0,3914.0,905.0,1172.0,0.0,0.0,0.0,95760.0,0,0,0,35380.0,0,0,0,1.0,1.0,154577.0,PAN-PRI-PRD
806,113806.0,11436.0,1178.0,3796.0,1849.0,10556.0,38198.0,2529.0,657.0,1354.0,0.0,0.0,0.0,0.0,0,0,0,0.0,0,0,0,0.0,0.0,185359.0,PAN
807,0.0,0.0,0.0,0.0,0.0,6751.0,0.0,2149.0,981.0,979.0,0.0,0.0,0.0,61514.0,0,0,0,29647.0,0,0,0,1.0,1.0,102021.0,PAN-PRI-PRD
808,72693.0,10100.0,1534.0,0.0,0.0,10026.0,0.0,2734.0,1049.0,1505.0,0.0,0.0,0.0,0.0,0,0,0,53041.0,0,0,0,1.0,0.0,152682.0,PAN
809,0.0,0.0,0.0,0.0,0.0,18342.0,0.0,4574.0,513.0,1297.0,0.0,0.0,0.0,49099.0,0,0,0,18703.0,0,0,0,1.0,1.0,92528.0,PAN-PRI-PRD
901,0.0,0.0,0.0,4467.0,2848.0,3844.0,71968.0,3987.0,1724.0,2856.0,0.0,0.0,0.0,43185.0,0,0,0,0.0,0,0,0,0.0,1.0,134879.0,MORENA
902,0.0,0.0,0.0,0.0,0.0,5802.0,0.0,2887.0,1497.0,3266.0,0.0,0.0,0.0,97046.0,0,0,0,78396.0,0,0,0,1.0,1.0,188894.0,PAN-PRI-PRD
903,0.0,0.0,0.0,0.0,0.0,4990.0,0.0,3995.0,1805.0,11050.0,0.0,0.0,0.0,86734.0,0,0,0,87439.0,0,0,0,1.0,1.0,196013.0,PVEM-PT-MORENA
904,0.0,0.0,0.0,0.0,0.0,4619.0,0.0,3414.0,1171.0,2690.0,0.0,0.0,0.0,39956.0,0,0,0,69825.0,0,0,0,1.0,1.0,121675.0,PVEM-PT-MORENA
905,0.0,0.0,0.0,0.0,0.0,11217.0,0.0,1666.0,995.0,6661.0,0.0,0.0,0.0,68820.0,0,0,0,54191.0,0,0,0,1.0,1.0,143550.0,PAN-PRI-PRD
906,0.0,0.0,0.0,4576.0,6087.0,5838.0,52488.0,3697.0,1333.0,5050.0,0.0,0.0,0.0,99573.0,0,0,0,0.0,0,0,0,0.0,1.0,178642.0,PAN-PRI-PRD
907,0.0,0.0,0.0,4674.0,3460.0,5792.0,80174.0,3067.0,1740.0,3977.0,0.0,0.0,0.0,76758.0,0,0,0,0.0,0,0,0,0.0,1.0,179642.0,MORENA
908,0.0,0.0,0.0,0.0,0.0,4519.0,0.0,3602.0,1914.0,2525.0,0.0,0.0,0.0,60011.0,0,0,0,63524.0,0,0,0,1.0,1.0,136095.0,PVEM-PT-MORENA
909,0.0,0.0,0.0,7980.0,4454.0,4272.0,59795.0,4496.0,1441.0,3160.0,0.0,0.0,0.0,46700.0,0,0,0,0.0,0,0,0,0.0,1.0,132298.0,MORENA
910,0.0,0.0,0.0,0.0,0.0,9043.0,0.0,1718.0,1015.0,2202.0,0.0,0.0,0.0,109914.0,0,0,0,67155.0,0,0,0,1.0,1.0,191047.0,PAN-PRI-PRD
911,0.0,0.0,0.0,3508.0,2923.0,6597.0,71853.0,2430.0,1105.0,3149.0,0.0,0.0,0.0,69536.0,0,0,0,0.0,0,0,0,0.0,1.0,161101.0,MORENA
912,0.0,0.0,0.0,3048.0,2239.0,5325.0,51047.0,2273.0,1174.0,3088.0,0.0,0.0,0.0,82590.0,0,0,0,0.0,0,0,0,0.0,1.0,150784.0,PAN-PRI-PRD
913,0.0,0.0,0.0,0.0,0.0,5851.0,0.0,3548.0,1725.0,4730.0,0.0,0.0,0.0,77723.0,0,0,0,84547.0,0,0,0,1.0,1.0,178124.0,PVEM-PT-MORENA
914,0.0,0.0,0.0,3754.0,2801.0,11250.0,56295.0,2026.0,1119.0,5902.0,0.0,0.0,0.0,58971.0,0,0,0,0.0,0,0,0,0.0,1.0,142118.0,PAN-PRI-PRD
915,0.0,0.0,0.0,0.0,0.0,6476.0,0.0,1403.0,817.0,1955.0,0.0,0.0,0.0,170721.0,0,0,0,51099.0,0,0,0,1.0,1.0,232471.0,PAN-PRI-PRD
916,0.0,0.0,0.0,0.0,0.0,5757.0,0.0,2617.0,1020.0,4194.0,0.0,0.0,0.0,87363.0,0,0,0,67275.0,0,0,0,1.0,1.0,168226.0,PAN-PRI-PRD
917,0.0,0.0,0.0,0.0,0.0,5397.0,0.0,3897.0,1737.0,3883.0,0.0,0.0,0.0,109117.0,0,0,0,64273.0,0,0,0,1.0,1.0,188304.0,PAN-PRI-PRD
918,0.0,0.0,0.0,7797.0,3215.0,6181.0,65875.0,2697.0,1114.0,2492.0,0.0,0.0,0.0,69753.0,0,0,0,0.0,0,0,0,0.0,1.0,159124.0,PAN-PRI-PRD
919,0.0,0.0,0.0,5218.0,3174.0,4567.0,70453.0,2923.0,1049.0,2298.0,0.0,0.0,0.0,47503.0,0,0,0,0.0,0,0,0,0.0,1.0,137185.0,MORENA
920,0.0,0.0,0.0,0.0,0.0,4372.0,0.0,2210.0,1088.0,2098.0,0.0,0.0,0.0,41637.0,0,0,0,74557.0,0,0,0,1.0,1.0,125962.0,PVEM-PT-MORENA
921,0.0,0.0,0.0,6818.0,5125.0,5695.0,66208.0,4449.0,2032.0,4805.0,0.0,0.0,0.0,47602.0,0,0,0,0.0,0,0,0,0.0,1.0,142734.0,MORENA
922,0.0,0.0,0.0,4018.0,2932.0,3168.0,65678.0,2691.0,781.0,1798.0,0.0,0.0,0.0,23761.0,0,0,0,0.0,0,0,0,0.0,1.0,104827.0,MORENA
923,0.0,0.0,0.0,0.0,0.0,8449.0,0.0,2351.0,1197.0,3570.0,0.0,0.0,0.0,101082.0,0,0,0,82232.0,0,0,0,1.0,1.0,198881.0,PAN-PRI-PRD
924,0.0,0.0,0.0,5943.0,3803.0,6212.0,61907.0,2273.0,1178.0,3259.0,0.0,0.0,0.0,103302.0,0,0,0,0.0,0,0,0,0.0,1.0,187877.0,PAN-PRI-PRD
1001,0.0,0.0,0.0,0.0,0.0,4645.0,0.0,2089.0,2993.0,1885.0,0.0,0.0,0.0,68655.0,0,0,0,51450.0,0,0,0,1.0,1.0,131717.0,PAN-PRI-PRD
1002,0.0,0.0,0.0,0.0,0.0,3935.0,0.0,2044.0,761.0,1441.0,0.0,0.0,0.0,53774.0,0,0,0,69681.0,0,0,0,1.0,1.0,131636.0,PVEM-PT-MORENA
1003,0.0,0.0,0.0,0.0,0.0,4998.0,0.0,2101.0,3401.0,1699.0,0.0,0.0,0.0,60269.0,0,0,0,64863.0,0,0,0,1.0,1.0,137331.0,PVEM-PT-MORENA
1004,0.0,0.0,0.0,0.0,0.0,14765.0,0.0,2995.0,13551.0,3208.0,0.0,0.0,0.0,57764.0,0,0,0,40574.0,0,0,0,1.0,1.0,132857.0,PAN-PRI-PRD
1101,43810.0,30272.0,6618.0,6911.0,3078.0,2279.0,23963.0,4558.0,2994.0,5567.0,0.0,0.0,0.0,0.0,0,0,0,0.0,0,0,0,0.0,0.0,130050.0,PAN
1102,41753.0,20869.0,3330.0,6227.0,7340.0,6314.0,30760.0,4277.0,1467.0,4188.0,0.0,0.0,0.0,0.0,0,0,0,0.0,0,0,0,0.0,0.0,126525.0,PAN
1103,98992.0,10574.0,1099.0,4839.0,873.0,5145.0,25698.0,988.0,595.0,943.0,0.0,0.0,0.0,0.0,0,0,0,0.0,0,0,0,0.0,0.0,149746.0,PAN
1104,54842.0,11583.0,1873.0,16816.0,2968.0,3921.0,17896.0,1376.0,5377.0,2467.0,0.0,0.0,0.0,0.0,0,0,0,0.0,0,0,0,0.0,0.0,119119.0,PAN
1105,71672.0,10823.0,972.0,4699.0,1035.0,4192.0,28468.0,1423.0,566.0,1282.0,0.0,0.0,0.0,0.0,0,0,0,0.0,0,0,0,0.0,0.0,125132.0,PAN
1106,79560.0,10080.0,1034.0,4750.0,964.0,4164.0,29911.0,1065.0,594.0,1010.0,0.0,0.0,0.0,0.0,0,0,0,0.0,0,0,0,0.0,0.0,133132.0,PAN
1107,57526.0,25891.0,1625.0,8033.0,981.0,4653.0,22252.0,874.0,351.0,544.0,0.0,0.0,0.0,0.0,0,0,0,0.0,0,0,0,0.0,0.0,122730.0,PAN
1108,0.0,0.0,0.0,7452.0,4868.0,12060.0,49679.0,2134.0,4204.0,4112.0,0.0,0.0,0.0,64753.0,0,0,0,0.0,0,0,0,0.0,1.0,149262.0,PAN-PRI-PRD
1109,47895.0,13274.0,1252.0,4225.0,1012.0,3589.0,32691.0,1493.0,1118.0,1620.0,0.0,0.0,0.0,0.0,0,0,0,0.0,0,0,0,0.0,0.0,108169.0,PAN
1110,38712.0,20890.0,5289.0,13621.0,1869.0,12254.0,40044.0,3619.0,2598.0,1492.0,0.0,0.0,0.0,0.0,0,0,0,0.0,0,0,0,0.0,0.0,140388.0,MORENA
1111,65263.0,9443.0,1261.0,4418.0,939.0,3773.0,29010.0,1114.0,712.0,1232.0,0.0,0.0,0.0,0.0,0,0,0,0.0,0,0,0,0.0,0.0,117165.0,PAN
1112,55816.0,14288.0,2312.0,5772.0,4543.0,5510.0,43804.0,2047.0,1183.0,1999.0,0.0,0.0,0.0,0.0,0,0,0,0.0,0,0,0,0.0,0.0,137274.0,PAN
1113,45083.0,23947.0,2740.0,0.0,0.0,7109.0,0.0,2205.0,8436.0,3350.0,0.0,0.0,0.0,0.0,0,0,0,47336.0,0,0,0,1.0,0.0,140206.0,PVEM-PT-MORENA
1114,42450.0,20094.0,3421.0,9791.0,3464.0,8050.0,29817.0,4442.0,2101.0,2511.0,0.0,0.0,0.0,0.0,0,0,0,0.0,0,0,0,0.0,0.0,126141.0,PAN
1115,47299.0,10692.0,1582.0,2699.0,1072.0,4455.0,36535.0,1151.0,1109.0,1169.0,0.0,0.0,0.0,0.0,0,0,0,0.0,0,0,0,0.0,0.0,107763.0,PAN
1201,0.0,0.0,0.0,0.0,0.0,5462.0,0.0,1135.0,837.0,859.0,0.0,0.0,0.0,76321.0,0,0,0,65820.0,0,0,0,1.0,1.0,150434.0,PAN-PRI-PRD
1202,15946.0,36555.0,20892.0,6820.0,5821.0,3794.0,52850.0,2969.0,2902.0,8775.0,0.0,0.0,0.0,0.0,0,0,0,0.0,0,0,0,0.0,0.0,157324.0,MORENA
1203,0.0,0.0,0.0,0.0,0.0,3185.0,0.0,4753.0,2325.0,1307.0,0.0,0.0,0.0,78269.0,0,0,0,91279.0,0,0,0,1.0,1.0,181118.0,PVEM-PT-MORENA
1204,0.0,0.0,0.0,2267.0,1625.0,9411.0,81243.0,2764.0,1286.0,3108.0,0.0,0.0,0.0,44690.0,0,0,0,0.0,0,0,0,0.0,1.0,146394.0,MORENA
1205,0.0,0.0,0.0,0.0,0.0,8918.0,0.0,4805.0,1664.0,1183.0,0.0,0.0,0.0,50675.0,0,0,0,83456.0,0,0,0,1.0,1.0,150701.0,PVEM-PT-MORENA
1206,0.0,0.0,0.0,0.0,0.0,4085.0,0.0,2183.0,2065.0,808.0,0.0,0.0,0.0,98022.0,0,0,0,59701.0,0,0,0,1.0,1.0,166864.0,PAN-PRI-PRD
1207,0.0,0.0,0.0,0.0,0.0,2754.0,0.0,1932.0,1605.0,1687.0,0.0,0.0,0.0,65477.0,0,0,0,77062.0,0,0,0,1.0,1.0,150517.0,PVEM-PT-MORENA
1208,0.0,0.0,0.0,0.0,0.0,2722.0,0.0,3865.0,1303.0,1905.0,0.0,0.0,0.0,62132.0,0,0,0,83512.0,0,0,0,1.0,1.0,155439.0,PVEM-PT-MORENA
1209,0.0,0.0,0.0,2555.0,2115.0,3120.0,67016.0,2564.0,1428.0,1912.0,0.0,0.0,0.0,52931.0,0,0,0,0.0,0,0,0,0.0,1.0,133641.0,MORENA
1301,0.0,0.0,0.0,0.0,0.0,2236.0,0.0,15134.0,3324.0,2009.0,0.0,0.0,0.0,67789.0,0,0,0,65390.0,0,0,0,1.0,1.0,155882.0,PAN-PRI-PRD
1302,0.0,0.0,0.0,0.0,0.0,2127.0,0.0,3141.0,3359.0,2805.0,0.0,0.0,0.0,52893.0,0,0,0,74315.0,0,0,0,1.0,1.0,138640.0,PVEM-PT-MORENA
1303,0.0,0.0,0.0,3559.0,2715.0,2424.0,63872.0,2448.0,1906.0,2407.0,0.0,0.0,0.0,56624.0,0,0,0,0.0,0,0,0,0.0,1.0,135955.0,MORENA
1304,0.0,0.0,0.0,0.0,0.0,3844.0,0.0,2344.0,2025.0,3110.0,0.0,0.0,0.0,49581.0,0,0,0,59688.0,0,0,0,1.0,1.0,120592.0,PVEM-PT-MORENA
1305,0.0,0.0,0.0,0.0,0.0,4119.0,0.0,2087.0,3092.0,3320.0,0.0,0.0,0.0,57755.0,0,0,0,80444.0,0,0,0,1.0,1.0,150817.0,PVEM-PT-MORENA
1306,0.0,0.0,0.0,0.0,0.0,5315.0,0.0,2180.0,1689.0,3617.0,0.0,0.0,0.0,72126.0,0,0,0,81259.0,0,0,0,1.0,1.0,166186.0,PVEM-PT-MORENA
1307,0.0,0.0,0.0,2544.0,2076.0,2820.0,65161.0,1682.0,2508.0,2478.0,0.0,0.0,0.0,56567.0,0,0,0,0.0,0,0,0,0.0,1.0,135836.0,MORENA
1401,0.0,0.0,0.0,0.0,0.0,42998.0,0.0,2961.0,993.0,2319.0,0.0,0.0,0.0,66159.0,0,0,0,41234.0,0,0,0,1.0,1.0,156664.0,PAN-PRI-PRD
1402,0.0,0.0,0.0,7833.0,925.0,47607.0,18871.0,3347.0,1853.0,1809.0,0.0,0.0,0.0,56405.0,0,0,0,0.0,0,0,0,0.0,1.0,138650.0,PAN-PRI-PRD
1403,0.0,0.0,0.0,5609.0,1366.0,39619.0,18623.0,4267.0,593.0,6782.0,0.0,0.0,0.0,86464.0,0,0,0,0.0,0,0,0,0.0,1.0,163323.0,PAN-PRI-PRD
1404,0.0,0.0,0.0,0.0,0.0,44564.0,0.0,3284.0,1119.0,2779.0,0.0,0.0,0.0,35566.0,0,0,0,38467.0,0,0,0,1.0,1.0,125779.0,MC
1405,0.0,0.0,0.0,0.0,0.0,40547.0,0.0,3021.0,1631.0,1441.0,0.0,0.0,0.0,20618.0,0,0,0,71339.0,0,0,0,1.0,1.0,138597.0,PVEM-PT-MORENA
1406,0.0,0.0,0.0,0.0,0.0,60966.0,0.0,3013.0,984.0,2907.0,0.0,0.0,0.0,43009.0,0,0,0,37623.0,0,0,0,1.0,1.0,148502.0,MC
1407,0.0,0.0,0.0,0.0,0.0,21357.0,0.0,3079.0,1170.0,2748.0,0.0,0.0,0.0,33503.0,0,0,0,38563.0,0,0,0,1.0,1.0,100420.0,PVEM-PT-MORENA
1408,0.0,0.0,0.0,0.0,0.0,67190.0,0.0,2498.0,888.0,3782.0,0.0,0.0,0.0,58511.0,0,0,0,36816.0,0,0,0,1.0,1.0,169685.0,MC
1409,0.0,0.0,0.0,0.0,0.0,38799.0,0.0,3042.0,1039.0,3292.0,0.0,3928.0,0.0,30551.0,0,0,0,44635.0,0,0,0,1.0,1.0,125286.0,PVEM-PT-MORENA
1410,0.0,0.0,0.0,0.0,0.0,67994.0,0.0,1965.0,814.0,1924.0,0.0,0.0,0.0,54667.0,0,0,0,25777.0,0,0,0,1.0,1.0,153141.0,MC
1411,0.0,0.0,0.0,0.0,0.0,44429.0,0.0,5313.0,1181.0,4026.0,0.0,0.0,0.0,37073.0,0,0,0,47267.0,0,0,0,1.0,1.0,139289.0,PVEM-PT-MORENA
1412,0.0,0.0,0.0,0.0,0.0,51000.0,0.0,4329.0,1314.0,2105.0,0.0,0.0,0.0,32597.0,0,0,0,45159.0,0,0,0,1.0,1.0,136504.0,MC
1413,0.0,0.0,0.0,0.0,0.0,44823.0,0.0,2677.0,1248.0,2464.0,0.0,0.0,0.0,40856.0,0,0,0,34418.0,0,0,0,1.0,1.0,126486.0,MC
1414,0.0,0.0,0.0,0.0,0.0,50734.0,0.0,3492.0,1155.0,3952.0,0.0,0.0,0.0,44741.0,0,0,0,46428.0,0,0,0,1.0,1.0,150502.0,MC
1415,0.0,0.0,0.0,0.0,0.0,42474.0,0.0,5283.0,6709.0,4081.0,0.0,0.0,0.0,50847.0,0,0,0,42669.0,0,0,0,1.0,1.0,152063.0,PAN-PRI-PRD
1416,0.0,0.0,0.0,0.0,0.0,30284.0,0.0,4820.0,1926.0,2365.0,0.0,0.0,0.0,36373.0,0,0,0,44170.0,0,0,0,1.0,1.0,119938.0,PVEM-PT-MORENA
1417,0.0,0.0,0.0,0.0,0.0,44045.0,0.0,5355.0,766.0,6219.0,0.0,0.0,0.0,41688.0,0,0,0,51644.0,0,0,0,1.0,1.0,149717.0,PVEM-PT-MORENA
1418,0.0,0.0,0.0,0.0,0.0,36981.0,0.0,2127.0,530.0,2195.0,0.0,0.0,0.0,53606.0,0,0,0,36025.0,0,0,0,1.0,1.0,131464.0,PAN-PRI-PRD
1419,0.0,0.0,0.0,0.0,0.0,50685.0,0.0,3083.0,1472.0,6960.0,0.0,0.0,0.0,46191.0,0,0,0,54874.0,0,0,0,1.0,1.0,163265.0,PVEM-PT-MORENA
1420,0.0,0.0,0.0,0.0,0.0,34679.0,0.0,3530.0,1236.0,2660.0,0.0,0.0,0.0,41317.0,0,0,0,38080.0,0,0,0,1.0,1.0,121502.0,PAN-PRI-PRD
1501,0.0,0.0,0.0,0.0,0.0,6996.0,0.0,4912.0,5382.0,5684.0,0.0,0.0,0.0,99565.0,0,0,0,93678.0,0,0,0,1.0,1.0,216217.0,PAN-PRI-PRD
1502,0.0,0.0,0.0,0.0,0.0,7134.0,0.0,2930.0,3743.0,3016.0,0.0,0.0,0.0,44537.0,0,0,0,63155.0,0,0,0,1.0,1.0,124515.0,PVEM-PT-MORENA
1503,0.0,0.0,0.0,0.0,0.0,16228.0,0.0,7982.0,2881.0,8249.0,0.0,0.0,0.0,86644.0,0,0,0,78394.0,0,0,0,1.0,1.0,200378.0,PAN-PRI-PRD
1504,26733.0,44985.0,2395.0,0.0,0.0,6399.0,0.0,3685.0,4687.0,3764.0,0.0,0.0,0.0,0.0,0,0,0,64556.0,0,0,0,1.0,0.0,157204.0,PVEM-PT-MORENA
1505,33801.0,55884.0,2634.0,0.0,0.0,3582.0,0.0,3707.0,4883.0,4180.0,0.0,0.0,0.0,0.0,0,0,0,68129.0,0,0,0,1.0,0.0,176800.0,PVEM-PT-MORENA
1506,0.0,0.0,0.0,0.0,0.0,6974.0,0.0,3258.0,6103.0,4151.0,0.0,0.0,0.0,59202.0,0,0,0,67053.0,0,0,0,1.0,1.0,146741.0,PVEM-PT-MORENA
1507,0.0,0.0,0.0,8882.0,2747.0,6742.0,63608.0,2314.0,2056.0,2722.0,0.0,0.0,0.0,80937.0,0,0,0,0.0,0,0,0,0.0,1.0,170008.0,PAN-PRI-PRD
1508,15679.0,32186.0,2873.0,6129.0,2140.0,4074.0,53852.0,1974.0,978.0,3560.0,0.0,0.0,0.0,0.0,0,0,0,0.0,0,0,0,0.0,0.0,123445.0,MORENA
1509,0.0,0.0,0.0,12602.0,2839.0,14781.0,43420.0,3857.0,1757.0,1321.0,0.0,0.0,0.0,97668.0,0,0,0,0.0,0,0,0,0.0,1.0,178245.0,PAN-PRI-PRD
1510,10142.0,30883.0,8260.0,3047.0,1609.0,3074.0,55700.0,1748.0,1106.0,2625.0,0.0,0.0,0.0,0.0,0,0,0,0.0,0,0,0,0.0,0.0,118194.0,MORENA
1511,10979.0,37754.0,6098.0,4391.0,1894.0,3498.0,55796.0,1842.0,1503.0,2726.0,0.0,0.0,0.0,0.0,0,0,0,0.0,0,0,0,0.0,0.0,126481.0,MORENA
1512,6635.0,45428.0,1950.0,0.0,0.0,4291.0,0.0,1754.0,1050.0,5907.0,0.0,0.0,0.0,0.0,0,0,0,62084.0,0,0,0,1.0,0.0,129099.0,PVEM-PT-MORENA
1513,12864.0,35655.0,5427.0,3942.0,1756.0,3761.0,58829.0,1819.0,951.0,2331.0,0.0,0.0,0.0,0.0,0,0,0,0.0,0,0,0,0.0,0.0,127335.0,MORENA
1514,0.0,0.0,0.0,0.0,0.0,5400.0,0.0,2184.0,1300.0,2993.0,0.0,0.0,0.0,84168.0,0,0,0,61854.0,0,0,0,1.0,1.0,157899.0,PAN-PRI-PRD
1515,0.0,0.0,0.0,0.0,0.0,4544.0,0.0,2314.0,1546.0,3824.0,0.0,0.0,0.0,85109.0,0,0,0,59073.0,0,0,0,1.0,1.0,156410.0,PAN-PRI-PRD
1516,12807.0,36810.0,3546.0,0.0,0.0,3150.0,0.0,2203.0,906.0,2167.0,0.0,0.0,0.0,0.0,0,0,0,65897.0,0,0,0,1.0,0.0,127486.0,PVEM-PT-MORENA
1517,11233.0,34580.0,3895.0,3270.0,2721.0,3387.0,53713.0,1953.0,1092.0,2152.0,0.0,0.0,0.0,0.0,0,0,0,0.0,0,0,0,0.0,0.0,117996.0,MORENA
1518,76127.0,46899.0,7120.0,4596.0,2851.0,6123.0,48348.0,2791.0,1243.0,4541.0,0.0,0.0,0.0,0.0,0,0,0,0.0,0,0,0,0.0,0.0,200639.0,PAN
1519,0.0,0.0,0.0,4521.0,2212.0,4997.0,61900.0,1907.0,1175.0,3431.0,0.0,0.0,0.0,88837.0,0,0,0,0.0,0,0,0,0.0,1.0,168980.0,PAN-PRI-PRD
1520,0.0,0.0,0.0,2895.0,1813.0,28097.0,59122.0,1675.0,814.0,1721.0,0.0,0.0,0.0,46400.0,0,0,0,0.0,0,0,0,0.0,1.0,142537.0,MORENA
1521,8424.0,42384.0,6993.0,13093.0,1988.0,10988.0,57295.0,5273.0,3892.0,6478.0,0.0,0.0,0.0,0.0,0,0,0,0.0,0,0,0,0.0,0.0,156808.0,MORENA
1522,75216.0,34600.0,2441.0,3793.0,3745.0,7560.0,49481.0,3101.0,2314.0,2836.0,0.0,0.0,0.0,0.0,0,0,0,0.0,0,0,0,0.0,0.0,185087.0,PAN
1523,16380.0,62582.0,4772.0,16429.0,5700.0,3035.0,63552.0,6414.0,3012.0,5128.0,0.0,0.0,0.0,0.0,0,0,0,0.0,0,0,0,0.0,0.0,187004.0,MORENA
1524,0.0,0.0,0.0,0.0,0.0,8355.0,0.0,5036.0,1526.0,2902.0,0.0,0.0,0.0,65136.0,0,0,0,63582.0,0,0,0,1.0,1.0,146537.0,PAN-PRI-PRD
1525,3686.0,44725.0,1622.0,2170.0,1976.0,2157.0,57485.0,1485.0,709.0,1554.0,0.0,0.0,0.0,0.0,0,0,0,0.0,0,0,0,0.0,0.0,117569.0,MORENA
1526,0.0,0.0,0.0,0.0,0.0,4636.0,0.0,5163.0,2240.0,3541.0,0.0,0.0,0.0,80108.0,0,0,0,75144.0,0,0,0,1.0,1.0,170832.0,PAN-PRI-PRD
1527,0.0,0.0,0.0,0.0,0.0,12656.0,0.0,5073.0,4438.0,6382.0,0.0,0.0,0.0,104760.0,0,0,0,69905.0,0,0,0,1.0,1.0,203214.0,PAN-PRI-PRD
1528,32564.0,32064.0,11183.0,12377.0,2806.0,3760.0,57705.0,2064.0,2089.0,12235.0,0.0,0.0,0.0,0.0,0,0,0,0.0,0,0,0,0.0,0.0,168847.0,MORENA
1529,0.0,0.0,0.0,2609.0,2304.0,30199.0,62873.0,2438.0,1001.0,3293.0,0.0,0.0,0.0,45254.0,0,0,0,0.0,0,0,0,0.0,1.0,149971.0,MORENA
1530,4142.0,51239.0,3067.0,0.0,0.0,1955.0,0.0,2694.0,1005.0,3571.0,0.0,0.0,0.0,0.0,0,0,0,59333.0,0,0,0,1.0,0.0,127006.0,PVEM-PT-MORENA
1531,0.0,0.0,0.0,2843.0,2289.0,31192.0,62391.0,2303.0,880.0,2167.0,0.0,0.0,0.0,37257.0,0,0,0,0.0,0,0,0,0.0,1.0,141322.0,MORENA
1532,0.0,0.0,0.0,0.0,0.0,4419.0,0.0,2180.0,1975.0,2787.0,0.0,0.0,0.0,43009.0,0,0,0,72993.0,0,0,0,1.0,1.0,127363.0,PVEM-PT-MORENA
1533,0.0,0.0,0.0,7336.0,2919.0,6630.0,57908.0,2616.0,2168.0,2630.0,0.0,0.0,0.0,45755.0,0,0,0,0.0,0,0,0,0.0,1.0,127962.0,MORENA
1534,0.0,0.0,0.0,0.0,0.0,5246.0,0.0,3877.0,2644.0,4251.0,0.0,0.0,0.0,97020.0,0,0,0,73915.0,0,0,0,1.0,1.0,186953.0,PAN-PRI-PRD
1535,0.0,0.0,0.0,0.0,0.0,13076.0,0.0,6904.0,3326.0,5657.0,0.0,0.0,0.0,65322.0,0,0,0,75893.0,0,0,0,1.0,1.0,170178.0,PVEM-PT-MORENA
1536,0.0,0.0,0.0,13259.0,3182.0,4237.0,66208.0,4216.0,2847.0,4413.0,0.0,0.0,0.0,95709.0,0,0,0,0.0,0,0,0,0.0,1.0,194071.0,PAN-PRI-PRD
1537,20560.0,29575.0,2732.0,10886.0,2571.0,13646.0,61962.0,5582.0,5268.0,4751.0,0.0,0.0,0.0,0.0,0,0,0,0.0,0,0,0,0.0,0.0,157533.0,MORENA
1538,13854.0,37195.0,4917.0,20482.0,1802.0,3596.0,64656.0,3689.0,1956.0,3839.0,0.0,0.0,0.0,0.0,0,0,0,0.0,0,0,0,0.0,0.0,155986.0,MORENA
1539,0.0,0.0,0.0,0.0,0.0,3159.0,0.0,2455.0,1454.0,7035.0,0.0,0.0,0.0,60199.0,0,0,0,52570.0,0,0,0,1.0,1.0,126872.0,PAN-PRI-PRD
1540,0.0,0.0,0.0,22246.0,5814.0,6792.0,52983.0,5997.0,2226.0,4081.0,0.0,0.0,0.0,76105.0,0,0,0,0.0,0,0,0,0.0,1.0,176244.0,PAN-PRI-PRD
1541,0.0,0.0,0.0,0.0,0.0,4944.0,0.0,2261.0,1142.0,2962.0,0.0,0.0,0.0,92481.0,0,0,0,85948.0,0,0,0,1.0,1.0,189738.0,PAN-PRI-PRD
1601,0.0,0.0,0.0,4675.0,10090.0,1942.0,68805.0,1364.0,1925.0,2194.0,0.0,0.0,0.0,34250.0,0,0,0,0.0,0,0,0,0.0,1.0,125245.0,MORENA
1602,0.0,0.0,0.0,15737.0,13466.0,7549.0,36927.0,14163.0,1823.0,7490.0,0.0,0.0,0.0,57689.0,0,0,0,0.0,0,0,0,0.0,1.0,154844.0,PAN-PRI-PRD
1603,0.0,0.0,0.0,0.0,0.0,4085.0,0.0,4416.0,2889.0,2366.0,0.0,0.0,0.0,63551.0,0,0,0,72732.0,0,0,0,1.0,1.0,150039.0,PVEM-PT-MORENA
1604,0.0,0.0,0.0,10165.0,5687.0,10606.0,41191.0,4132.0,2241.0,5267.0,0.0,0.0,0.0,66406.0,0,0,0,0.0,0,0,0,0.0,1.0,145695.0,PAN-PRI-PRD
1605,0.0,0.0,0.0,5224.0,6857.0,9557.0,33295.0,3804.0,956.0,2761.0,0.0,0.0,0.0,59644.0,0,0,0,0.0,0,0,0,0.0,1.0,122098.0,PAN-PRI-PRD
1606,0.0,0.0,0.0,17621.0,11569.0,9315.0,39665.0,2656.0,2744.0,2752.0,0.0,0.0,0.0,56056.0,0,0,0,0.0,0,0,0,0.0,1.0,142378.0,PAN-PRI-PRD
1607,0.0,0.0,0.0,8058.0,6391.0,8209.0,44740.0,9098.0,2629.0,4869.0,0.0,0.0,0.0,55612.0,0,0,0,0.0,0,0,0,0.0,1.0,139606.0,PAN-PRI-PRD
1608,0.0,0.0,0.0,7245.0,3220.0,3514.0,48517.0,3144.0,2008.0,2669.0,0.0,0.0,0.0,52769.0,0,0,0,0.0,0,0,0,0.0,1.0,123086.0,PAN-PRI-PRD
1609,0.0,0.0,0.0,3150.0,3344.0,1965.0,44859.0,953.0,548.0,1202.0,8617.0,0.0,0.0,39195.0,0,0,0,0.0,0,0,0,0.0,1.0,103833.0,MORENA
1610,0.0,0.0,0.0,8747.0,3839.0,4094.0,47032.0,2542.0,1875.0,2634.0,0.0,0.0,0.0,82156.0,0,0,0,0.0,0,0,0,0.0,1.0,152919.0,PAN-PRI-PRD
1611,0.0,0.0,0.0,12576.0,14171.0,3372.0,38603.0,7858.0,3847.0,5265.0,0.0,0.0,0.0,58488.0,0,0,0,0.0,0,0,0,0.0,1.0,144180.0,PAN-PRI-PRD
1612,0.0,0.0,0.0,0.0,0.0,2955.0,0.0,2685.0,2310.0,5151.0,0.0,0.0,0.0,37349.0,0,0,0,46615.0,0,0,0,1.0,1.0,97065.0,PVEM-PT-MORENA
1701,42457.0,15249.0,4722.0,5482.0,4646.0,4891.0,45866.0,4136.0,2274.0,15358.0,0.0,0.0,0.0,0.0,0,0,0,0.0,0,0,0,0.0,0.0,145081.0,MORENA
1702,18929.0,13566.0,9943.0,0.0,0.0,9748.0,0.0,3711.0,10805.0,9065.0,0.0,0.0,0.0,0.0,0,0,0,58768.0,0,0,0,1.0,0.0,134535.0,PVEM-PT-MORENA
1703,17006.0,13369.0,3803.0,5552.0,8948.0,13083.0,53684.0,16503.0,6491.0,6254.0,0.0,0.0,0.0,0.0,0,0,0,0.0,0,0,0,0.0,0.0,144693.0,MORENA
1704,8154.0,10885.0,3013.0,0.0,0.0,11485.0,0.0,3161.0,31219.0,24379.0,0.0,0.0,0.0,0.0,0,0,0,61444.0,0,0,0,1.0,0.0,153740.0,PVEM-PT-MORENA
1705,20287.0,18000.0,2859.0,8999.0,10977.0,13206.0,53409.0,11667.0,9574.0,12963.0,0.0,0.0,0.0,0.0,0,0,0,0.0,0,0,0,0.0,0.0,161941.0,MORENA
1801,0.0,0.0,0.0,0.0,0.0,26628.0,0.0,3596.0,3496.0,4598.0,0.0,0.0,0.0,31993.0,0,0,0,68454.0,0,0,0,1.0,1.0,138765.0,PVEM-PT-MORENA
1802,0.0,0.0,0.0,0.0,0.0,24989.0,0.0,6971.0,4932.0,4162.0,0.0,0.0,0.0,31848.0,0,0,0,82433.0,0,0,0,1.0,1.0,155335.0,PVEM-PT-MORENA
1803,0.0,0.0,0.0,0.0,0.0,17621.0,0.0,2340.0,4175.0,4584.0,0.0,0.0,0.0,37029.0,0,0,0,62337.0,0,0,0,1.0,1.0,128086.0,PVEM-PT-MORENA
1901,101477.0,18578.0,543.0,2280.0,1144.0,24990.0,18029.0,918.0,937.0,2079.0,0.0,0.0,0.0,0.0,0,0,0,0.0,0,0,0,0.0,0.0,170975.0,PAN
1902,32920.0,64421.0,1003.0,0.0,0.0,34222.0,0.0,1701.0,768.0,1774.0,0.0,0.0,0.0,0.0,0,0,0,35470.0,0,0,0,1.0,0.0,172279.0,PRI
1903,34387.0,21619.0,2074.0,0.0,0.0,34453.0,0.0,1229.0,1078.0,1774.0,0.0,0.0,0.0,0.0,0,0,0,34877.0,0,0,0,1.0,0.0,131491.0,PVEM-PT-MORENA
1904,99201.0,22936.0,758.0,3334.0,2217.0,35815.0,28342.0,1116.0,853.0,1522.0,0.0,0.0,0.0,0.0,0,0,0,0.0,0,0,0,0.0,0.0,196094.0,PAN
1905,11002.0,51756.0,501.0,0.0,0.0,21525.0,0.0,706.0,834.0,1036.0,0.0,0.0,0.0,0.0,0,0,0,24057.0,0,0,0,1.0,0.0,111417.0,PRI
1906,65640.0,59073.0,1136.0,2474.0,3426.0,46927.0,23274.0,1732.0,709.0,1357.0,0.0,0.0,0.0,0.0,0,0,0,0.0,0,0,0,0.0,0.0,205748.0,PAN
1907,45725.0,29798.0,1928.0,0.0,0.0,43509.0,0.0,2475.0,3572.0,4233.0,0.0,0.0,0.0,0.0,0,0,0,46150.0,0,0,0,1.0,0.0,177390.0,PVEM-PT-MORENA
1908,34686.0,40768.0,949.0,0.0,0.0,31060.0,0.0,1573.0,847.0,1548.0,0.0,0.0,0.0,0.0,0,0,0,32600.0,0,0,0,1.0,0.0,144031.0,PRI
1909,50444.0,69429.0,884.0,7863.0,5935.0,20910.0,27756.0,1034.0,2025.0,1099.0,0.0,0.0,0.0,0.0,0,0,0,0.0,0,0,0,0.0,0.0,187379.0,PRI
1910,49627.0,68763.0,954.0,0.0,0.0,40635.0,0.0,987.0,776.0,1283.0,0.0,0.0,0.0,0.0,0,0,0,23587.0,0,0,0,1.0,0.0,186612.0,PRI
1911,57783.0,40983.0,918.0,0.0,0.0,29665.0,0.0,2302.0,1067.0,1088.0,0.0,0.0,0.0,0.0,0,0,0,32619.0,0,0,0,1.0,0.0,166425.0,PAN
1912,34911.0,40390.0,1063.0,0.0,0.0,30533.0,0.0,1430.0,1081.0,2802.0,0.0,0.0,0.0,0.0,0,0,0,37955.0,0,0,0,1.0,0.0,150165.0,PRI
2001,0.0,0.0,0.0,0.0,0.0,8375.0,0.0,4753.0,4249.0,5547.0,0.0,0.0,0.0,57208.0,0,0,0,99259.0,0,0,0,1.0,1.0,179391.0,PVEM-PT-MORENA
2002,0.0,0.0,0.0,9060.0,10015.0,4227.0,73733.0,3364.0,4536.0,3635.0,0.0,0.0,0.0,62657.0,0,0,0,0.0,0,0,0,0.0,1.0,171227.0,MORENA
2003,0.0,0.0,0.0,0.0,0.0,4821.0,0.0,3978.0,3228.0,10340.0,0.0,0.0,0.0,42823.0,0,0,0,93778.0,0,0,0,1.0,1.0,158968.0,PVEM-PT-MORENA
2004,0.0,0.0,0.0,0.0,0.0,3863.0,0.0,3017.0,2169.0,4118.0,0.0,0.0,0.0,36466.0,0,0,0,89593.0,0,0,0,1.0,1.0,139226.0,PVEM-PT-MORENA
2005,0.0,0.0,0.0,0.0,0.0,3048.0,0.0,3093.0,2806.0,3950.0,0.0,0.0,0.0,32693.0,0,0,0,105840.0,0,0,0,1.0,1.0,151430.0,PVEM-PT-MORENA
2006,0.0,0.0,0.0,5881.0,17568.0,2777.0,61979.0,4349.0,2695.0,5335.0,0.0,0.0,0.0,35824.0,0,0,0,0.0,0,0,0,0.0,1.0,136408.0,MORENA
2007,0.0,0.0,0.0,0.0,0.0,4015.0,0.0,5480.0,3660.0,4111.0,0.0,0.0,0.0,58379.0,0,0,0,105764.0,0,0,0,1.0,1.0,181409.0,PVEM-PT-MORENA
2008,0.0,0.0,0.0,0.0,0.0,6197.0,0.0,7100.0,2775.0,6696.0,0.0,0.0,0.0,50186.0,0,0,0,87114.0,0,0,0,1.0,1.0,160068.0,PVEM-PT-MORENA
2009,0.0,0.0,0.0,0.0,0.0,2933.0,0.0,2806.0,4918.0,3855.0,0.0,0.0,0.0,73098.0,0,0,0,80606.0,0,0,0,1.0,1.0,168216.0,PVEM-PT-MORENA
2010,0.0,0.0,0.0,13774.0,9445.0,3661.0,69554.0,3703.0,2621.0,5752.0,0.0,0.0,0.0,54096.0,0,0,0,0.0,0,0,0,0.0,1.0,162606.0,MORENA
2101,0.0,0.0,0.0,0.0,0.0,20602.0,0.0,7457.0,3556.0,4454.0,0.0,0.0,0.0,74263.0,0,0,0,80216.0,0,0,0,1.0,1.0,190548.0,PVEM-PT-MORENA
2102,0.0,0.0,0.0,0.0,0.0,6318.0,0.0,3744.0,5293.0,8414.0,0.0,0.0,0.0,81902.0,0,0,0,90925.0,0,0,0,1.0,1.0,196596.0,PVEM-PT-MORENA
2103,0.0,0.0,0.0,0.0,0.0,19485.0,0.0,8199.0,4094.0,9787.0,0.0,0.0,0.0,64791.0,0,0,0,78118.0,0,0,0,1.0,1.0,184474.0,PVEM-PT-MORENA
2104,0.0,0.0,0.0,0.0,0.0,9833.0,0.0,8967.0,6598.0,5069.0,0.0,0.0,0.0,68234.0,0,0,0,80390.0,0,0,0,1.0,1.0,179091.0,PVEM-PT-MORENA
2105,0.0,0.0,0.0,0.0,0.0,12726.0,0.0,8404.0,6090.0,8366.0,0.0,0.0,0.0,49905.0,0,0,0,75506.0,0,0,0,1.0,1.0,160997.0,PVEM-PT-MORENA
2106,0.0,0.0,0.0,0.0,0.0,4210.0,0.0,1920.0,1472.0,3037.0,0.0,0.0,0.0,49373.0,0,0,0,60846.0,0,0,0,1.0,1.0,120858.0,PVEM-PT-MORENA
2107,0.0,0.0,0.0,0.0,0.0,10556.0,0.0,5635.0,8110.0,8158.0,0.0,0.0,0.0,53550.0,0,0,0,84995.0,0,0,0,1.0,1.0,171004.0,PVEM-PT-MORENA
2108,0.0,0.0,0.0,0.0,0.0,22913.0,0.0,4291.0,2448.0,6886.0,0.0,0.0,0.0,73289.0,0,0,0,80612.0,0,0,0,1.0,1.0,190439.0,PVEM-PT-MORENA
2109,0.0,0.0,0.0,0.0,0.0,3863.0,0.0,1796.0,1421.0,2772.0,0.0,0.0,0.0,75144.0,0,0,0,65865.0,0,0,0,1.0,1.0,150861.0,PAN-PRI-PRD
2110,0.0,0.0,0.0,0.0,0.0,7948.0,0.0,10033.0,4295.0,6856.0,0.0,0.0,0.0,81860.0,0,0,0,69869.0,0,0,0,1.0,1.0,180861.0,PAN-PRI-PRD
2111,0.0,0.0,0.0,0.0,0.0,4116.0,0.0,2468.0,2125.0,3108.0,0.0,0.0,0.0,61380.0,0,0,0,58116.0,0,0,0,1.0,1.0,131313.0,PAN-PRI-PRD
2112,0.0,0.0,0.0,0.0,0.0,4805.0,0.0,2385.0,1242.0,3243.0,0.0,0.0,0.0,90804.0,0,0,0,65557.0,0,0,0,1.0,1.0,168036.0,PAN-PRI-PRD
2113,0.0,0.0,0.0,0.0,0.0,7659.0,0.0,5146.0,6526.0,8071.0,0.0,0.0,0.0,60173.0,0,0,0,83042.0,0,0,0,1.0,1.0,170617.0,PVEM-PT-MORENA
2114,0.0,0.0,0.0,0.0,0.0,6225.0,0.0,5466.0,5004.0,5949.0,0.0,0.0,0.0,72134.0,0,0,0,95590.0,0,0,0,1.0,1.0,190368.0,PVEM-PT-MORENA
2115,0.0,0.0,0.0,0.0,0.0,6321.0,0.0,7029.0,1841.0,8784.0,0.0,0.0,0.0,40862.0,0,0,0,84818.0,0,0,0,1.0,1.0,149655.0,PVEM-PT-MORENA
2201,56858.0,32954.0,1532.0,9253.0,1385.0,2337.0,30189.0,2279.0,3196.0,5631.0,0.0,0.0,0.0,0.0,0,0,0,0.0,0,0,0,0.0,0.0,145614.0,PAN
2202,61535.0,24545.0,2605.0,0.0,0.0,2935.0,0.0,3446.0,3815.0,3919.0,0.0,0.0,0.0,0.0,0,0,0,48724.0,0,0,0,1.0,0.0,151524.0,PAN
2203,83456.0,17782.0,1671.0,0.0,0.0,4012.0,0.0,2574.0,1784.0,2873.0,0.0,0.0,0.0,0.0,0,0,0,62878.0,0,0,0,1.0,0.0,177030.0,PAN
2204,106281.0,19411.0,1870.0,5305.0,1866.0,3615.0,50216.0,2105.0,1721.0,2626.0,0.0,0.0,0.0,0.0,0,0,0,0.0,0,0,0,0.0,0.0,195016.0,PAN
2205,95826.0,32681.0,2034.0,8015.0,2859.0,3364.0,40611.0,2584.0,2576.0,3546.0,0.0,0.0,0.0,0.0,0,0,0,0.0,0,0,0,0.0,0.0,194096.0,PAN
2301,0.0,0.0,0.0,0.0,0.0,5910.0,0.0,4068.0,2409.0,10247.0,0.0,0.0,0.0,56306.0,0,0,0,77732.0,0,0,0,1.0,1.0,156672.0,PVEM-PT-MORENA
2302,0.0,0.0,0.0,0.0,0.0,7810.0,0.0,3326.0,5316.0,7790.0,0.0,0.0,0.0,43023.0,0,0,0,79784.0,0,0,0,1.0,1.0,147049.0,PVEM-PT-MORENA
2303,0.0,0.0,0.0,0.0,0.0,2860.0,0.0,7604.0,1392.0,11195.0,0.0,0.0,0.0,17588.0,0,0,0,56544.0,0,0,0,1.0,1.0,97183.0,PVEM-PT-MORENA
2304,0.0,0.0,0.0,0.0,0.0,4895.0,0.0,5707.0,1725.0,15263.0,0.0,0.0,0.0,50248.0,0,0,0,64081.0,0,0,0,1.0,1.0,141919.0,PVEM-PT-MORENA
2401,0.0,0.0,0.0,0.0,0.0,13728.0,0.0,5096.0,2191.0,2340.0,0.0,0.0,0.0,54988.0,0,0,0,71889.0,0,0,0,1.0,1.0,150232.0,PVEM-PT-MORENA
2402,0.0,0.0,0.0,67141.0,3770.0,8439.0,28870.0,2488.0,3706.0,1880.0,0.0,0.0,0.0,64168.0,0,0,0,0.0,0,0,0,0.0,1.0,180462.0,PVEM
2403,0.0,0.0,0.0,0.0,0.0,7335.0,0.0,4309.0,2327.0,1913.0,0.0,0.0,0.0,64661.0,0,0,0,65884.0,0,0,0,1.0,1.0,146429.0,PVEM-PT-MORENA
2404,0.0,0.0,0.0,0.0,0.0,4569.0,0.0,6096.0,18722.0,4999.0,0.0,0.0,0.0,34390.0,0,0,0,65317.0,0,0,0,1.0,1.0,134093.0,PVEM-PT-MORENA
2405,0.0,0.0,0.0,0.0,0.0,5135.0,0.0,2024.0,1828.0,2132.0,0.0,0.0,0.0,84704.0,0,0,0,69493.0,0,0,0,1.0,1.0,165316.0,PAN-PRI-PRD
2406,0.0,0.0,0.0,0.0,0.0,5619.0,0.0,2541.0,2933.0,3283.0,0.0,0.0,0.0,49775.0,0,0,0,89535.0,0,0,0,1.0,1.0,153686.0,PVEM-PT-MORENA
2407,0.0,0.0,0.0,0.0,0.0,5198.0,0.0,5675.0,21545.0,2043.0,0.0,0.0,0.0,58661.0,0,0,0,86453.0,0,0,0,1.0,1.0,179575.0,PVEM-PT-MORENA
2501,0.0,0.0,0.0,0.0,0.0,8447.0,0.0,3137.0,1628.0,3293.0,0.0,0.0,0.0,40764.0,0,0,0,73580.0,0,0,0,1.0,1.0,130849.0,PVEM-PT-MORENA
2502,0.0,0.0,0.0,0.0,0.0,7268.0,0.0,2150.0,2307.0,3650.0,0.0,0.0,0.0,49886.0,0,0,0,86793.0,0,0,0,1.0,1.0,152054.0,PVEM-PT-MORENA
2503,0.0,0.0,0.0,0.0,0.0,7222.0,0.0,3652.0,3494.0,1894.0,0.0,0.0,0.0,61491.0,0,0,0,89537.0,0,0,0,1.0,1.0,167290.0,PVEM-PT-MORENA
2504,0.0,0.0,0.0,7130.0,602.0,3755.0,62093.0,2320.0,1709.0,1224.0,0.0,0.0,0.0,49621.0,0,0,0,0.0,0,0,0,0.0,1.0,128454.0,MORENA
2505,0.0,0.0,0.0,0.0,0.0,6543.0,0.0,3468.0,1358.0,3533.0,0.0,0.0,0.0,52337.0,0,0,0,75883.0,0,0,0,1.0,1.0,143122.0,PVEM-PT-MORENA
2506,0.0,0.0,0.0,3549.0,7297.0,5151.0,68979.0,6554.0,1373.0,3181.0,0.0,0.0,0.0,51790.0,0,0,0,0.0,0,0,0,0.0,1.0,147874.0,MORENA
2507,0.0,0.0,0.0,0.0,0.0,6094.0,0.0,2817.0,1644.0,1982.0,0.0,0.0,0.0,47379.0,0,0,0,67226.0,0,0,0,1.0,1.0,127142.0,PVEM-PT-MORENA
2601,0.0,0.0,0.0,5380.0,3734.0,5927.0,45186.0,4117.0,1031.0,3509.0,0.0,0.0,0.0,36539.0,0,0,0,0.0,0,0,0,0.0,1.0,105423.0,MORENA
2602,0.0,0.0,0.0,0.0,0.0,8410.0,0.0,9323.0,1780.0,2208.0,0.0,0.0,0.0,46059.0,0,0,0,59139.0,0,0,0,1.0,1.0,126919.0,PVEM-PT-MORENA
2603,0.0,0.0,0.0,0.0,0.0,16201.0,0.0,1449.0,1196.0,2292.0,0.0,0.0,0.0,43770.0,0,0,0,63618.0,0,0,0,1.0,1.0,128526.0,PVEM-PT-MORENA
2604,0.0,0.0,0.0,4437.0,15752.0,9769.0,53573.0,2219.0,2276.0,3824.0,0.0,0.0,0.0,39877.0,0,0,0,0.0,0,0,0,0.0,1.0,131727.0,MORENA
2605,0.0,0.0,0.0,0.0,0.0,9458.0,0.0,1612.0,650.0,1901.0,0.0,0.0,0.0,59577.0,0,0,0,62811.0,0,0,0,1.0,1.0,136009.0,PVEM-PT-MORENA
2606,0.0,0.0,0.0,3053.0,3336.0,15925.0,56345.0,2382.0,1224.0,3180.0,0.0,0.0,0.0,39677.0,0,0,0,0.0,0,0,0,0.0,1.0,125122.0,MORENA
2607,0.0,0.0,0.0,0.0,0.0,7424.0,0.0,2581.0,2916.0,1848.0,0.0,0.0,0.0,43027.0,0,0,0,72950.0,0,0,0,1.0,1.0,130746.0,PVEM-PT-MORENA
2701,0.0,0.0,0.0,17892.0,1329.0,2195.0,84349.0,6826.0,2632.0,1077.0,0.0,0.0,0.0,21687.0,0,0,0,0.0,0,0,0,0.0,1.0,137987.0,MORENA
2702,0.0,0.0,0.0,5903.0,3298.0,1979.0,92963.0,2847.0,2667.0,1311.0,0.0,0.0,0.0,45209.0,0,0,0,0.0,0,0,0,0.0,1.0,156177.0,MORENA
2703,0.0,0.0,0.0,1909.0,1968.0,4354.0,82590.0,3340.0,1897.0,2352.0,0.0,0.0,0.0,40623.0,0,0,0,0.0,0,0,0,0.0,1.0,139033.0,MORENA
2704,0.0,0.0,0.0,3622.0,2816.0,3126.0,90822.0,2264.0,1902.0,3271.0,0.0,0.0,0.0,31998.0,0,0,0,0.0,0,0,0,0.0,1.0,139821.0,MORENA
2705,0.0,0.0,0.0,16012.0,9116.0,6572.0,90503.0,4292.0,9125.0,9927.0,0.0,0.0,0.0,23618.0,0,0,0,0.0,0,0,0,0.0,1.0,169165.0,MORENA
2706,0.0,0.0,0.0,6391.0,1765.0,11329.0,88880.0,2254.0,1852.0,3372.0,0.0,0.0,0.0,26268.0,0,0,0,0.0,0,0,0,0.0,1.0,142111.0,MORENA
2801,58315.0,11660.0,909.0,0.0,0.0,3426.0,0.0,1974.0,1436.0,2199.0,0.0,0.0,0.0,0.0,0,0,0,65495.0,0,0,0,1.0,0.0,145414.0,PVEM-PT-MORENA
2802,46992.0,11856.0,1063.0,0.0,0.0,4074.0,0.0,5336.0,1159.0,2247.0,0.0,0.0,0.0,0.0,0,0,0,54055.0,0,0,0,1.0,0.0,126782.0,PVEM-PT-MORENA
2803,48469.0,20489.0,1869.0,0.0,0.0,3861.0,0.0,2498.0,1610.0,1643.0,0.0,0.0,0.0,0.0,0,0,0,67049.0,0,0,0,1.0,0.0,147488.0,PVEM-PT-MORENA
2804,36148.0,11387.0,1052.0,0.0,0.0,3008.0,0.0,1822.0,1016.0,1287.0,0.0,0.0,0.0,0.0,0,0,0,85264.0,0,0,0,1.0,0.0,140984.0,PVEM-PT-MORENA
2805,74249.0,27792.0,1493.0,0.0,0.0,8695.0,0.0,2588.0,2874.0,1821.0,0.0,0.0,0.0,0.0,0,0,0,62971.0,0,0,0,1.0,0.0,182483.0,PAN
2806,70463.0,25813.0,1569.0,7157.0,6521.0,6392.0,58587.0,2607.0,2071.0,1661.0,0.0,0.0,0.0,0.0,0,0,0,0.0,0,0,0,0.0,0.0,182841.0,PAN
2807,54389.0,6905.0,2897.0,0.0,0.0,4689.0,0.0,4886.0,1677.0,1687.0,0.0,0.0,0.0,0.0,0,0,0,81249.0,0,0,0,1.0,0.0,158379.0,PVEM-PT-MORENA
2808,78633.0,4620.0,1098.0,0.0,0.0,5731.0,0.0,2386.0,2120.0,1086.0,0.0,0.0,0.0,0.0,0,0,0,74414.0,0,0,0,1.0,0.0,170088.0,PAN
2809,34811.0,7550.0,1332.0,0.0,0.0,3785.0,0.0,4494.0,1629.0,1200.0,0.0,0.0,0.0,0.0,0,0,0,65070.0,0,0,0,1.0,0.0,119871.0,PVEM-PT-MORENA
2901,0.0,0.0,0.0,0.0,0.0,5464.0,0.0,4637.0,9074.0,7140.0,0.0,0.0,29679.0,64743.0,0,0,0,73795.0,0,0,0,1.0,1.0,194532.0,PVEM-PT-MORENA
2902,0.0,0.0,0.0,0.0,0.0,11141.0,0.0,5055.0,8623.0,11205.0,0.0,0.0,0.0,52730.0,0,0,0,103404.0,0,0,0,1.0,1.0,192158.0,PVEM-PT-MORENA
2903,0.0,0.0,0.0,5600.0,14175.0,6780.0,83252.0,5592.0,11326.0,8275.0,0.0,0.0,0.0,64015.0,0,0,0,0.0,0,0,0,0.0,1.0,199015.0,MORENA
3001,0.0,0.0,0.0,0.0,0.0,3744.0,0.0,7775.0,3611.0,5252.0,0.0,0.0,0.0,49521.0,0,0,0,91476.0,0,0,0,1.0,1.0,161379.0,PVEM-PT-MORENA
3002,0.0,0.0,0.0,0.0,0.0,6571.0,0.0,3451.0,2961.0,2395.0,0.0,0.0,0.0,75307.0,0,0,0,74980.0,0,0,0,1.0,1.0,165665.0,PAN-PRI-PRD
3003,0.0,0.0,0.0,0.0,0.0,12919.0,0.0,3506.0,2601.0,10377.0,0.0,0.0,0.0,42040.0,0,0,0,71986.0,0,0,0,1.0,1.0,143429.0,PVEM-PT-MORENA
3004,0.0,0.0,0.0,0.0,0.0,4946.0,0.0,1926.0,1639.0,1894.0,0.0,0.0,0.0,64751.0,0,0,0,73128.0,0,0,0,1.0,1.0,148284.0,PVEM-PT-MORENA
3005,0.0,0.0,0.0,0.0,0.0,6906.0,0.0,5384.0,3515.0,6220.0,0.0,0.0,0.0,41269.0,0,0,0,66258.0,0,0,0,1.0,1.0,129552.0,PVEM-PT-MORENA
3006,0.0,0.0,0.0,12251.0,6957.0,18356.0,63526.0,4895.0,3831.0,3008.0,0.0,0.0,0.0,60266.0,0,0,0,0.0,0,0,0,0.0,1.0,173090.0,MORENA
3007,0.0,0.0,0.0,11335.0,8182.0,12011.0,60803.0,8948.0,9171.0,5757.0,0.0,0.0,0.0,45926.0,0,0,0,0.0,0,0,0,0.0,1.0,162133.0,MORENA
3008,0.0,0.0,0.0,0.0,0.0,26151.0,0.0,4951.0,8212.0,15841.0,0.0,0.0,0.0,57969.0,0,0,0,96627.0,0,0,0,1.0,1.0,209751.0,PVEM-PT-MORENA
3009,0.0,0.0,0.0,7530.0,6276.0,14817.0,60874.0,4033.0,7544.0,4302.0,0.0,0.0,0.0,69324.0,0,0,0,0.0,0,0,0,0.0,1.0,174700.0,PAN-PRI-PRD
3010,0.0,0.0,0.0,5083.0,3822.0,12083.0,71216.0,4234.0,2609.0,3792.0,0.0,0.0,0.0,65929.0,0,0,0,0.0,0,0,0,0.0,1.0,168768.0,MORENA
3011,0.0,0.0,0.0,3778.0,3095.0,9381.0,91344.0,3939.0,1480.0,5278.0,0.0,0.0,0.0,36958.0,0,0,0,0.0,0,0,0,0.0,1.0,155253.0,MORENA
3012,0.0,0.0,0.0,0.0,0.0,10811.0,0.0,2689.0,2917.0,3110.0,0.0,0.0,0.0,90263.0,0,0,0,72774.0,0,0,0,1.0,1.0,182564.0,PAN-PRI-PRD
3013,0.0,0.0,0.0,0.0,0.0,19452.0,0.0,3555.0,2335.0,4903.0,0.0,0.0,0.0,75520.0,0,0,0,85739.0,0,0,0,1.0,1.0,191504.0,PVEM-PT-MORENA
3014,0.0,0.0,0.0,0.0,0.0,3970.0,0.0,5266.0,3122.0,6059.0,0.0,0.0,0.0,39455.0,0,0,0,96707.0,0,0,0,1.0,1.0,154579.0,PVEM-PT-MORENA
3015,0.0,0.0,0.0,0.0,0.0,15593.0,0.0,5367.0,4078.0,3078.0,0.0,0.0,0.0,78752.0,0,0,0,79672.0,0,0,0,1.0,1.0,186540.0,PVEM-PT-MORENA
3016,0.0,0.0,0.0,0.0,0.0,11619.0,0.0,3947.0,4605.0,7496.0,0.0,0.0,0.0,60232.0,0,0,0,93288.0,0,0,0,1.0,1.0,181187.0,PVEM-PT-MORENA
3017,0.0,0.0,0.0,0.0,0.0,15058.0,0.0,4714.0,5791.0,8113.0,0.0,0.0,0.0,42601.0,0,0,0,92581.0,0,0,0,1.0,1.0,168858.0,PVEM-PT-MORENA
3018,0.0,0.0,0.0,0.0,0.0,8910.0,0.0,8274.0,7257.0,8446.0,0.0,0.0,0.0,62461.0,0,0,0,90265.0,0,0,0,1.0,1.0,185613.0,PVEM-PT-MORENA
3019,0.0,0.0,0.0,0.0,0.0,28240.0,0.0,5971.0,7755.0,5134.0,0.0,0.0,0.0,38354.0,0,0,0,87868.0,0,0,0,1.0,1.0,173322.0,PVEM-PT-MORENA
3020,0.0,0.0,0.0,3356.0,3374.0,10390.0,93872.0,6220.0,7069.0,7691.0,0.0,0.0,0.0,49172.0,0,0,0,0.0,0,0,0,0.0,1.0,181144.0,MORENA
3101,85774.0,64028.0,2259.0,3535.0,2551.0,3510.0,52736.0,2089.0,1166.0,2380.0,0.0,0.0,0.0,0.0,0,0,0,0.0,0,0,0,0.0,0.0,220028.0,PAN
3102,53835.0,46525.0,7181.0,0.0,0.0,9950.0,0.0,6230.0,1295.0,3728.0,0.0,0.0,0.0,0.0,0,0,0,75408.0,0,0,0,1.0,0.0,204152.0,PVEM-PT-MORENA
3103,51770.0,42844.0,1254.0,1689.0,1384.0,2984.0,49641.0,1501.0,646.0,1892.0,0.0,0.0,0.0,0.0,0,0,0,0.0,0,0,0,0.0,0.0,155605.0,PAN
3104,93904.0,32868.0,1288.0,1907.0,1246.0,4808.0,47742.0,1795.0,650.0,2462.0,0.0,0.0,0.0,0.0,0,0,0,0.0,0,0,0,0.0,0.0,188670.0,PAN
3105,65755.0,51249.0,10150.0,0.0,0.0,9253.0,0.0,2876.0,1309.0,4205.0,0.0,0.0,0.0,0.0,0,0,0,73455.0,0,0,0,1.0,0.0,218252.0,PVEM-PT-MORENA
3201,0.0,0.0,0.0,0.0,0.0,3856.0,0.0,4995.0,940.0,6235.0,0.0,0.0,0.0,60609.0,0,0,0,66802.0,0,0,0,1.0,1.0,143437.0,PVEM-PT-MORENA
3202,0.0,0.0,0.0,0.0,0.0,7381.0,0.0,4923.0,1028.0,4276.0,0.0,0.0,0.0,78550.0,0,0,0,74361.0,0,0,0,1.0,1.0,170519.0,PAN-PRI-PRD
3203,0.0,0.0,0.0,0.0,0.0,6460.0,0.0,8795.0,1535.0,5405.0,0.0,0.0,0.0,67030.0,0,0,0,79044.0,0,0,0,1.0,1.0,168269.0,PVEM-PT-MORENA
3204,0.0,0.0,0.0,4911.0,17612.0,6745.0,62129.0,4230.0,2070.0,8765.0,0.0,0.0,0.0,65030.0,0,0,0,0.0,0,0,0,0.0,1.0,171492.0,PAN-PRI-PRD
