ID_ESTADODISTRITO,PAN,PRI,PRD,PVEM,PT,MC,MORENA,PES,RSP,FXM,CI,PAN-PRI-PRD,PVEM-PT-MORENA,CANDIDATO/A NO REGISTRADO/A,VOTOS NULOS,LISTA_NOMINAL_CASILLA,JHH,VXM,TOTAL,Ganador,PARTICIPACION
101,0.0,0.0,0.0,11731.0,7696.0,6494.0,48317.0,3184.0,2208.0,9231.0,0.0,94438.0,0.0,223.0,7006.0,334777.0,0.0,1.0,190528.0,PAN-PRI-PRD,56.910000000000004
102,64670.0,10097.0,3629.0,0.0,0.0,6339.0,0.0,2433.0,1049.0,2872.0,0.0,0.0,46992.0,232.0,5001.0,331813.0,1.0,0.0,143314.0,PAN,43.19
103,101758.0,12857.0,2692.0,0.0,0.0,7128.0,0.0,2243.0,975.0,3108.0,0.0,0.0,44406.0,197.0,4882.0,350821.0,1.0,0.0,180246.0,PAN,51.38
201,0.0,0.0,0.0,0.0,0.0,8432.0,0.0,20582.0,1632.0,2650.0,0.0,31859.0,65037.0,112.0,4059.0,359116.0,1.0,1.0,134363.0,PVEM-PT-MORENA,37.41
202,32136.0,9237.0,1461.0,2713.0,1816.0,7999.0,58174.0,22197.0,2273.0,2546.0,0.0,0.0,0.0,145.0,5060.0,344830.0,0.0,0.0,145757.0,MORENA,42.27
203,0.0,0.0,0.0,0.0,0.0,5337.0,0.0,17317.0,3907.0,14696.0,0.0,27560.0,64801.0,121.0,4868.0,348261.0,1.0,1.0,138607.0,PVEM-PT-MORENA,39.800000000000004
204,0.0,0.0,0.0,4001.0,4431.0,5480.0,81138.0,19177.0,1692.0,2558.0,0.0,17646.0,0.0,106.0,4921.0,395214.0,0.0,1.0,141150.0,MORENA,35.709999999999994
205,0.0,0.0,0.0,3645.0,3135.0,6540.0,60352.0,26436.0,2421.0,3085.0,0.0,42493.0,0.0,157.0,4606.0,369354.0,0.0,1.0,152870.0,MORENA,41.39
206,0.0,0.0,0.0,3668.0,1956.0,6103.0,57298.0,28160.0,1688.0,2667.0,0.0,37167.0,0.0,88.0,4914.0,354821.0,0.0,1.0,143709.0,MORENA,40.5
207,0.0,0.0,0.0,0.0,0.0,7050.0,0.0,22148.0,3142.0,5993.0,0.0,22417.0,66088.0,180.0,4806.0,372488.0,1.0,1.0,131824.0,PVEM-PT-MORENA,35.39
208,0.0,0.0,0.0,0.0,0.0,5109.0,0.0,24246.0,1517.0,2546.0,0.0,23154.0,74479.0,113.0,3731.0,375102.0,1.0,1.0,134895.0,PVEM-PT-MORENA,35.96
301,0.0,0.0,0.0,0.0,0.0,5900.0,0.0,3822.0,1665.0,4254.0,0.0,71579.0,71821.0,126.0,5004.0,292920.0,1.0,1.0,164171.0,PVEM-PT-MORENA,56.05
302,0.0,0.0,0.0,0.0,0.0,3277.0,0.0,2577.0,2608.0,5527.0,0.0,41074.0,56895.0,106.0,3651.0,268732.0,1.0,1.0,115715.0,PVEM-PT-MORENA,43.059999999999995
401,0.0,0.0,0.0,3072.0,4450.0,51026.0,84232.0,2015.0,3189.0,1529.0,0.0,73447.0,0.0,90.0,5330.0,335377.0,0.0,1.0,228380.0,MORENA,68.10000000000001
402,0.0,0.0,0.0,2551.0,3205.0,28966.0,88485.0,1531.0,1761.0,821.0,0.0,63033.0,0.0,43.0,5678.0,333373.0,0.0,1.0,196074.0,MORENA,58.81999999999999
501,20654.0,55528.0,962.0,0.0,0.0,3027.0,0.0,1735.0,1001.0,2415.0,0.0,0.0,86783.0,98.0,3602.0,334986.0,1.0,0.0,175805.0,PVEM-PT-MORENA,52.480000000000004
502,18404.0,75847.0,1930.0,0.0,0.0,3234.0,0.0,1904.0,879.0,3158.0,0.0,0.0,86991.0,88.0,4250.0,314549.0,1.0,0.0,196685.0,PVEM-PT-MORENA,62.529999999999994
503,53858.0,60769.0,1004.0,0.0,0.0,5193.0,0.0,1069.0,550.0,8588.0,0.0,0.0,55971.0,44.0,3418.0,323421.0,1.0,0.0,190464.0,PRI,58.89
504,20459.0,90787.0,1340.0,0.0,0.0,3903.0,0.0,1286.0,505.0,1449.0,0.0,0.0,62203.0,61.0,3956.0,339754.0,1.0,0.0,185949.0,PRI,54.730000000000004
505,43303.0,74205.0,1038.0,0.0,0.0,1695.0,0.0,611.0,635.0,1438.0,0.0,0.0,64472.0,77.0,3090.0,302880.0,1.0,0.0,190564.0,PRI,62.92
506,21310.0,79712.0,2435.0,0.0,0.0,2082.0,0.0,995.0,691.0,5409.0,0.0,0.0,71729.0,53.0,3728.0,314629.0,1.0,0.0,188144.0,PRI,59.8
507,12681.0,79397.0,6213.0,3362.0,1913.0,4363.0,60421.0,1412.0,768.0,4851.0,0.0,0.0,0.0,83.0,4773.0,331841.0,0.0,0.0,180237.0,PRI,54.31
601,0.0,0.0,0.0,20160.0,3931.0,28765.0,45758.0,3610.0,1699.0,4515.0,0.0,49660.0,0.0,139.0,4607.0,292619.0,0.0,1.0,162844.0,PAN-PRI-PRD,55.65
602,0.0,0.0,0.0,30126.0,3342.0,9584.0,45746.0,5557.0,1439.0,5022.0,0.0,30074.0,0.0,151.0,3811.0,263700.0,0.0,1.0,134852.0,MORENA,51.13999999999999
701,0.0,0.0,0.0,0.0,0.0,4214.0,0.0,9637.0,13149.0,2361.0,0.0,14559.0,138808.0,48.0,13657.0,264887.0,1.0,1.0,196433.0,PVEM-PT-MORENA,74.16
702,0.0,0.0,0.0,0.0,0.0,2702.0,0.0,14607.0,2773.0,4288.0,0.0,64117.0,90377.0,18.0,15635.0,272398.0,1.0,1.0,194517.0,PVEM-PT-MORENA,71.41
703,0.0,0.0,0.0,60315.0,21170.0,2921.0,74083.0,4040.0,4675.0,1336.0,0.0,5164.0,0.0,18.0,8217.0,259872.0,0.0,1.0,181939.0,MORENA,70.00999999999999
704,0.0,0.0,0.0,37628.0,11283.0,5397.0,72112.0,10728.0,6440.0,2493.0,0.0,37541.0,0.0,70.0,11880.0,279029.0,0.0,1.0,195572.0,MORENA,70.09
705,0.0,0.0,0.0,0.0,0.0,5871.0,0.0,10085.0,6249.0,2991.0,0.0,72131.0,65830.0,298.0,13662.0,296936.0,1.0,1.0,177117.0,PAN-PRI-PRD,59.650000000000006
706,0.0,0.0,0.0,0.0,0.0,9962.0,0.0,6207.0,4802.0,4212.0,0.0,30665.0,112255.0,162.0,10408.0,327399.0,1.0,1.0,178673.0,PVEM-PT-MORENA,54.56999999999999
707,0.0,0.0,0.0,0.0,0.0,3716.0,0.0,12695.0,11198.0,3065.0,0.0,21806.0,110741.0,86.0,7092.0,291793.0,1.0,1.0,170399.0,PVEM-PT-MORENA,58.4
708,0.0,0.0,0.0,0.0,0.0,5127.0,0.0,6544.0,3763.0,2760.0,0.0,28734.0,104302.0,867.0,9988.0,271504.0,1.0,1.0,162085.0,PVEM-PT-MORENA,59.699999999999996
709,0.0,0.0,0.0,0.0,0.0,14612.0,0.0,4573.0,6542.0,2404.0,0.0,35520.0,66911.0,244.0,6587.0,319920.0,1.0,1.0,137393.0,PVEM-PT-MORENA,42.95
710,0.0,0.0,0.0,0.0,0.0,4600.0,0.0,15211.0,3465.0,2201.0,0.0,18888.0,120978.0,50.0,10944.0,294529.0,1.0,1.0,176337.0,PVEM-PT-MORENA,59.870000000000005
711,0.0,0.0,0.0,0.0,0.0,2340.0,0.0,26254.0,2496.0,1731.0,0.0,14969.0,89151.0,52.0,13776.0,213227.0,1.0,1.0,150769.0,PVEM-PT-MORENA,70.71
712,0.0,0.0,0.0,20835.0,10974.0,3950.0,70041.0,8758.0,4775.0,1884.0,0.0,29798.0,0.0,107.0,7457.0,303775.0,0.0,1.0,158579.0,MORENA,52.2
713,0.0,0.0,0.0,0.0,0.0,3036.0,0.0,15494.0,8599.0,1447.0,0.0,22563.0,102458.0,88.0,11317.0,264527.0,1.0,1.0,165002.0,PVEM-PT-MORENA,62.38
801,0.0,0.0,0.0,3807.0,2459.0,8822.0,63896.0,2711.0,944.0,1991.0,0.0,30178.0,0.0,84.0,3925.0,328503.0,0.0,1.0,118817.0,MORENA,36.17
802,0.0,0.0,0.0,0.0,0.0,10691.0,0.0,3166.0,832.0,2434.0,0.0,42763.0,59680.0,51.0,4399.0,309994.0,1.0,1.0,124016.0,PVEM-PT-MORENA,40.01
803,0.0,0.0,0.0,0.0,0.0,7624.0,0.0,2776.0,839.0,1955.0,0.0,26844.0,58908.0,101.0,3553.0,299748.0,1.0,1.0,102600.0,PVEM-PT-MORENA,34.23
804,0.0,0.0,0.0,0.0,0.0,10326.0,0.0,3221.0,1614.0,2394.0,0.0,73600.0,64162.0,173.0,3981.0,344702.0,1.0,1.0,159471.0,PAN-PRI-PRD,46.26
805,0.0,0.0,0.0,0.0,0.0,18891.0,0.0,4214.0,1002.0,1260.0,0.0,102623.0,38381.0,56.0,5423.0,339372.0,1.0,1.0,171850.0,PAN-PRI-PRD,50.63999999999999
806,124009.0,12308.0,1294.0,4217.0,2015.0,11788.0,43010.0,2865.0,740.0,1504.0,0.0,0.0,0.0,107.0,4274.0,366545.0,0.0,0.0,208131.0,PAN,56.779999999999994
807,0.0,0.0,0.0,0.0,0.0,11547.0,0.0,2799.0,1482.0,1230.0,0.0,83298.0,37850.0,23.0,6809.0,296556.0,1.0,1.0,145038.0,PAN-PRI-PRD,48.91
808,78315.0,10829.0,1694.0,0.0,0.0,11025.0,0.0,2974.0,1126.0,1611.0,0.0,0.0,56743.0,80.0,4219.0,350155.0,1.0,0.0,168616.0,PAN,48.15
809,0.0,0.0,0.0,0.0,0.0,23886.0,0.0,5671.0,1152.0,1729.0,0.0,81813.0,31847.0,62.0,7940.0,258950.0,1.0,1.0,154100.0,PAN-PRI-PRD,59.51
901,0.0,0.0,0.0,4558.0,2927.0,4193.0,73175.0,4085.0,1778.0,2911.0,0.0,43846.0,0.0,211.0,5370.0,314910.0,0.0,1.0,143054.0,MORENA,45.43
902,0.0,0.0,0.0,0.0,0.0,6085.0,0.0,2998.0,1555.0,3366.0,0.0,99629.0,81028.0,259.0,5188.0,369677.0,1.0,1.0,200108.0,PAN-PRI-PRD,54.13
903,0.0,0.0,0.0,0.0,0.0,4948.0,0.0,4049.0,1827.0,11213.0,0.0,89070.0,89336.0,214.0,5385.0,381923.0,1.0,1.0,206042.0,PVEM-PT-MORENA,53.949999999999996
904,0.0,0.0,0.0,0.0,0.0,4553.0,0.0,3437.0,1175.0,2699.0,0.0,40428.0,71022.0,148.0,3978.0,288317.0,1.0,1.0,127440.0,PVEM-PT-MORENA,44.2
905,0.0,0.0,0.0,0.0,0.0,11299.0,0.0,1663.0,1005.0,6696.0,0.0,69181.0,54879.0,189.0,4106.0,280902.0,1.0,1.0,149018.0,PAN-PRI-PRD,53.05
906,0.0,0.0,0.0,4608.0,6103.0,5770.0,53164.0,3739.0,1345.0,5104.0,0.0,100314.0,0.0,195.0,5998.0,326701.0,0.0,1.0,186340.0,PAN-PRI-PRD,57.04
907,0.0,0.0,0.0,4716.0,3519.0,5881.0,81197.0,3113.0,1779.0,4026.0,0.0,77963.0,0.0,211.0,5952.0,368661.0,0.0,1.0,188357.0,MORENA,51.09
908,0.0,0.0,0.0,0.0,0.0,4637.0,0.0,3703.0,1989.0,2573.0,0.0,61319.0,65411.0,245.0,4843.0,282791.0,1.0,1.0,144720.0,PVEM-PT-MORENA,51.18000000000001
909,0.0,0.0,0.0,7988.0,4485.0,4162.0,59829.0,4449.0,1477.0,3156.0,0.0,46485.0,0.0,151.0,5609.0,306258.0,0.0,1.0,137791.0,MORENA,44.99
910,0.0,0.0,0.0,0.0,0.0,9080.0,0.0,1726.0,1049.0,2227.0,0.0,110891.0,68399.0,198.0,3631.0,323748.0,1.0,1.0,197201.0,PAN-PRI-PRD,60.91
911,0.0,0.0,0.0,3602.0,3012.0,6563.0,74398.0,2452.0,1157.0,3252.0,0.0,71569.0,0.0,228.0,5227.0,306401.0,0.0,1.0,171460.0,MORENA,55.96
912,0.0,0.0,0.0,3117.0,2289.0,5400.0,52173.0,2339.0,1178.0,3166.0,0.0,83262.0,0.0,318.0,4753.0,302186.0,0.0,1.0,157995.0,PAN-PRI-PRD,52.28
913,0.0,0.0,0.0,0.0,0.0,6070.0,0.0,3584.0,1798.0,4840.0,0.0,79525.0,86918.0,265.0,5085.0,359482.0,1.0,1.0,188085.0,PVEM-PT-MORENA,52.32
914,0.0,0.0,0.0,3783.0,2822.0,11341.0,56656.0,2030.0,1125.0,5984.0,0.0,59160.0,0.0,243.0,5132.0,278674.0,0.0,1.0,148276.0,PAN-PRI-PRD,53.21
915,0.0,0.0,0.0,0.0,0.0,6565.0,0.0,1492.0,835.0,1957.0,0.0,172717.0,51520.0,276.0,3806.0,374479.0,1.0,1.0,239168.0,PAN-PRI-PRD,63.870000000000005
916,0.0,0.0,0.0,0.0,0.0,5915.0,0.0,2649.0,1052.0,4259.0,0.0,88722.0,68605.0,209.0,4892.0,331119.0,1.0,1.0,176303.0,PAN-PRI-PRD,53.239999999999995
917,0.0,0.0,0.0,0.0,0.0,5299.0,0.0,3964.0,1751.0,3931.0,0.0,110004.0,65305.0,128.0,4919.0,334994.0,1.0,1.0,195301.0,PAN-PRI-PRD,58.3
918,0.0,0.0,0.0,7974.0,3295.0,6328.0,66453.0,2721.0,1125.0,2541.0,0.0,70640.0,0.0,279.0,5704.0,325066.0,0.0,1.0,167060.0,PAN-PRI-PRD,51.39
919,0.0,0.0,0.0,5333.0,3238.0,4652.0,71656.0,2944.0,1058.0,2371.0,0.0,48457.0,0.0,148.0,5198.0,305131.0,0.0,1.0,145055.0,MORENA,47.54
920,0.0,0.0,0.0,0.0,0.0,4418.0,0.0,2227.0,1105.0,2133.0,0.0,41856.0,75296.0,135.0,3945.0,290479.0,1.0,1.0,131115.0,PVEM-PT-MORENA,45.14
921,0.0,0.0,0.0,6872.0,5212.0,5840.0,66578.0,4493.0,2041.0,4845.0,0.0,47440.0,0.0,187.0,6402.0,330380.0,0.0,1.0,149910.0,MORENA,45.379999999999995
922,0.0,0.0,0.0,4054.0,3002.0,3206.0,66910.0,2759.0,809.0,1818.0,0.0,23987.0,0.0,96.0,4817.0,289994.0,0.0,1.0,111458.0,MORENA,38.43
923,0.0,0.0,0.0,0.0,0.0,8331.0,0.0,2352.0,1201.0,3441.0,0.0,101913.0,82828.0,236.0,5418.0,361934.0,1.0,1.0,205720.0,PAN-PRI-PRD,56.84
924,0.0,0.0,0.0,6043.0,3892.0,6100.0,61922.0,2296.0,1213.0,3332.0,0.0,104540.0,0.0,235.0,4993.0,338227.0,0.0,1.0,194566.0,PAN-PRI-PRD,57.53
1001,0.0,0.0,0.0,0.0,0.0,4968.0,0.0,2318.0,3203.0,1952.0,0.0,73452.0,56024.0,79.0,4270.0,333512.0,1.0,1.0,146266.0,PAN-PRI-PRD,43.86
1002,0.0,0.0,0.0,0.0,0.0,3915.0,0.0,2142.0,784.0,1502.0,0.0,54716.0,72663.0,85.0,3174.0,334571.0,1.0,1.0,138981.0,PVEM-PT-MORENA,41.54
1003,0.0,0.0,0.0,0.0,0.0,5204.0,0.0,2322.0,3608.0,1724.0,0.0,62743.0,67836.0,49.0,3888.0,321326.0,1.0,1.0,147374.0,PVEM-PT-MORENA,45.86
1004,0.0,0.0,0.0,0.0,0.0,15375.0,0.0,2982.0,14110.0,3338.0,0.0,59596.0,41786.0,129.0,4024.0,343405.0,1.0,1.0,141340.0,PAN-PRI-PRD,41.160000000000004
1101,43911.0,30284.0,6625.0,6913.0,3077.0,2262.0,23911.0,4582.0,2960.0,5606.0,0.0,0.0,0.0,131.0,6878.0,279598.0,0.0,0.0,137140.0,PAN,49.05
1102,42933.0,21391.0,3378.0,6304.0,7540.0,6433.0,31691.0,4374.0,1568.0,4315.0,0.0,0.0,0.0,107.0,4947.0,320317.0,0.0,0.0,134981.0,PAN,42.14
1103,99667.0,10498.0,1114.0,4890.0,872.0,5197.0,25927.0,1005.0,590.0,953.0,0.0,0.0,0.0,91.0,2684.0,299534.0,0.0,0.0,153488.0,PAN,51.239999999999995
1104,55770.0,12186.0,1878.0,17240.0,3115.0,4013.0,18197.0,1406.0,5519.0,2502.0,0.0,0.0,0.0,94.0,4378.0,279500.0,0.0,0.0,126298.0,PAN,45.190000000000005
1105,72977.0,11045.0,994.0,4831.0,1033.0,4114.0,29142.0,1455.0,574.0,1310.0,0.0,0.0,0.0,77.0,2893.0,299263.0,0.0,0.0,130445.0,PAN,43.59
1106,79939.0,10103.0,1039.0,4744.0,946.0,4169.0,30050.0,1075.0,599.0,1016.0,0.0,0.0,0.0,96.0,2790.0,304633.0,0.0,0.0,136566.0,PAN,44.83
1107,58653.0,26453.0,1531.0,8245.0,996.0,4603.0,22745.0,871.0,369.0,563.0,0.0,0.0,0.0,41.0,3235.0,315900.0,0.0,0.0,128305.0,PAN,40.62
1108,0.0,0.0,0.0,7741.0,5032.0,12253.0,50531.0,2135.0,4295.0,4229.0,0.0,64870.0,0.0,150.0,4658.0,331523.0,0.0,1.0,155894.0,PAN-PRI-PRD,47.02
1109,50875.0,14355.0,1291.0,4331.0,1160.0,3850.0,34454.0,1567.0,1171.0,1666.0,0.0,0.0,0.0,101.0,2911.0,299986.0,0.0,0.0,117732.0,PAN,39.25
1110,39487.0,21201.0,5445.0,14023.0,1911.0,12324.0,41064.0,3743.0,2640.0,1517.0,0.0,0.0,0.0,89.0,4563.0,329915.0,0.0,0.0,148007.0,MORENA,44.86
1111,66851.0,9615.0,1293.0,4368.0,956.0,3792.0,29026.0,1100.0,726.0,1231.0,0.0,0.0,0.0,84.0,2587.0,281244.0,0.0,0.0,121629.0,PAN,43.25
1112,56265.0,14286.0,2336.0,5841.0,4550.0,5574.0,44108.0,2051.0,1174.0,2038.0,0.0,0.0,0.0,110.0,3670.0,330818.0,0.0,0.0,142003.0,PAN,42.92
1113,46290.0,24483.0,2814.0,0.0,0.0,7037.0,0.0,2159.0,8939.0,3317.0,0.0,0.0,47998.0,60.0,4649.0,316814.0,1.0,0.0,147746.0,PVEM-PT-MORENA,46.63
1114,42847.0,20434.0,3462.0,9823.0,3497.0,7969.0,30445.0,4913.0,2124.0,2529.0,0.0,0.0,0.0,212.0,5455.0,312677.0,0.0,0.0,133710.0,PAN,42.76
1115,48051.0,10831.0,1601.0,2730.0,1095.0,4503.0,37419.0,1160.0,1142.0,1184.0,0.0,0.0,0.0,168.0,2988.0,282134.0,0.0,0.0,112872.0,PAN,40.01
1201,0.0,0.0,0.0,0.0,0.0,5106.0,0.0,1139.0,860.0,915.0,0.0,77331.0,65656.0,12.0,4748.0,261484.0,1.0,1.0,155767.0,PAN-PRI-PRD,59.57
1202,16269.0,37118.0,21331.0,7125.0,5900.0,3967.0,53567.0,2973.0,3020.0,8834.0,0.0,0.0,0.0,62.0,6782.0,296540.0,0.0,0.0,166948.0,MORENA,56.3
1203,0.0,0.0,0.0,0.0,0.0,3218.0,0.0,4934.0,2302.0,1221.0,0.0,76859.0,90666.0,35.0,5333.0,319427.0,1.0,1.0,184568.0,PVEM-PT-MORENA,57.78
1204,0.0,0.0,0.0,2291.0,1622.0,9354.0,82749.0,2522.0,1396.0,3124.0,0.0,45201.0,0.0,96.0,5150.0,299066.0,0.0,1.0,153505.0,MORENA,51.33
1205,0.0,0.0,0.0,0.0,0.0,9331.0,0.0,5279.0,1848.0,1264.0,0.0,58141.0,93858.0,4179.0,8171.0,276233.0,1.0,1.0,182071.0,PVEM-PT-MORENA,65.91
1206,0.0,0.0,0.0,0.0,0.0,3751.0,0.0,2243.0,2128.0,823.0,0.0,99449.0,59840.0,82.0,7159.0,282383.0,1.0,1.0,175475.0,PAN-PRI-PRD,62.13999999999999
1207,0.0,0.0,0.0,0.0,0.0,2480.0,0.0,1886.0,1656.0,1727.0,0.0,65599.0,77700.0,99.0,5102.0,278619.0,1.0,1.0,156249.0,PVEM-PT-MORENA,56.08
1208,0.0,0.0,0.0,0.0,0.0,2824.0,0.0,4033.0,1359.0,1974.0,0.0,63830.0,86113.0,21.0,7192.0,259805.0,1.0,1.0,167346.0,PVEM-PT-MORENA,64.41
1209,0.0,0.0,0.0,2607.0,2155.0,3154.0,68008.0,2595.0,1445.0,1951.0,0.0,53544.0,0.0,45.0,4852.0,289510.0,0.0,1.0,140356.0,MORENA,48.480000000000004
1301,0.0,0.0,0.0,0.0,0.0,2223.0,0.0,15129.0,3361.0,2010.0,0.0,67860.0,65670.0,41.0,6734.0,290286.0,1.0,1.0,163028.0,PAN-PRI-PRD,56.16
1302,0.0,0.0,0.0,0.0,0.0,2111.0,0.0,3250.0,3404.0,2849.0,0.0,53546.0,75014.0,60.0,6043.0,307644.0,1.0,1.0,146277.0,PVEM-PT-MORENA,47.55
1303,0.0,0.0,0.0,3546.0,2717.0,2319.0,63946.0,2455.0,1932.0,2419.0,0.0,54782.0,0.0,64.0,5450.0,312237.0,0.0,1.0,139630.0,MORENA,44.72
1304,0.0,0.0,0.0,0.0,0.0,3771.0,0.0,2340.0,2033.0,3132.0,0.0,49745.0,60331.0,121.0,4888.0,309706.0,1.0,1.0,126361.0,PVEM-PT-MORENA,40.8
1305,0.0,0.0,0.0,0.0,0.0,4202.0,0.0,2109.0,3130.0,3315.0,0.0,58353.0,81644.0,54.0,4991.0,335582.0,1.0,1.0,157798.0,PVEM-PT-MORENA,47.02
1306,0.0,0.0,0.0,0.0,0.0,5366.0,0.0,2137.0,1688.0,3639.0,0.0,72429.0,82018.0,127.0,4563.0,371681.0,1.0,1.0,171967.0,PVEM-PT-MORENA,46.27
1307,0.0,0.0,0.0,2555.0,2090.0,2843.0,65984.0,1696.0,2543.0,2463.0,0.0,57216.0,0.0,93.0,4338.0,312780.0,0.0,1.0,141821.0,MORENA,45.34
1401,0.0,0.0,0.0,0.0,0.0,47463.0,0.0,3242.0,1089.0,2474.0,0.0,69303.0,42856.0,43.0,4179.0,281066.0,1.0,1.0,170649.0,PAN-PRI-PRD,60.709999999999994
1402,0.0,0.0,0.0,7986.0,887.0,49948.0,19621.0,3404.0,1896.0,1900.0,0.0,56450.0,0.0,101.0,3508.0,271892.0,0.0,1.0,145701.0,PAN-PRI-PRD,53.59
1403,0.0,0.0,0.0,5786.0,1367.0,40436.0,18916.0,4453.0,601.0,6794.0,0.0,88140.0,0.0,99.0,5154.0,348465.0,0.0,1.0,171746.0,PAN-PRI-PRD,49.29
1404,0.0,0.0,0.0,0.0,0.0,45656.0,0.0,3249.0,1134.0,2863.0,0.0,35559.0,38538.0,122.0,3253.0,301242.0,1.0,1.0,130374.0,MC,43.28
1405,0.0,0.0,0.0,0.0,0.0,40968.0,0.0,2988.0,1663.0,1452.0,0.0,20946.0,71921.0,75.0,3518.0,300977.0,1.0,1.0,143531.0,PVEM-PT-MORENA,47.69
1406,0.0,0.0,0.0,0.0,0.0,63036.0,0.0,3152.0,1018.0,3011.0,0.0,44151.0,38765.0,220.0,3331.0,352889.0,1.0,1.0,156684.0,MC,44.4
1407,0.0,0.0,0.0,0.0,0.0,22195.0,0.0,3234.0,1209.0,2796.0,0.0,32839.0,38056.0,198.0,2851.0,267588.0,1.0,1.0,103378.0,PVEM-PT-MORENA,38.629999999999995
1408,0.0,0.0,0.0,0.0,0.0,72639.0,0.0,2652.0,968.0,4133.0,0.0,62354.0,39077.0,134.0,4157.0,326458.0,1.0,1.0,186114.0,MC,57.010000000000005
1409,0.0,0.0,0.0,0.0,0.0,40058.0,0.0,3041.0,1053.0,3353.0,4097.0,30607.0,45546.0,142.0,3922.0,308161.0,1.0,1.0,131819.0,PVEM-PT-MORENA,42.78
1410,0.0,0.0,0.0,0.0,0.0,70358.0,0.0,1891.0,874.0,2024.0,0.0,55830.0,26670.0,134.0,2909.0,307218.0,1.0,1.0,160690.0,MC,52.300000000000004
1411,0.0,0.0,0.0,0.0,0.0,45841.0,0.0,5351.0,1214.0,4068.0,0.0,36924.0,48095.0,122.0,3943.0,313346.0,1.0,1.0,145558.0,PVEM-PT-MORENA,46.45
1412,0.0,0.0,0.0,0.0,0.0,52851.0,0.0,4471.0,1370.0,2204.0,0.0,33672.0,46583.0,125.0,3142.0,386496.0,1.0,1.0,144418.0,MC,37.37
1413,0.0,0.0,0.0,0.0,0.0,47544.0,0.0,2835.0,1336.0,2537.0,0.0,42684.0,35284.0,110.0,2920.0,295904.0,1.0,1.0,135250.0,MC,45.71
1414,0.0,0.0,0.0,0.0,0.0,51669.0,0.0,3465.0,1145.0,3775.0,0.0,44005.0,45965.0,131.0,4170.0,315635.0,1.0,1.0,154325.0,MC,48.89
1415,0.0,0.0,0.0,0.0,0.0,44958.0,0.0,5563.0,6793.0,4233.0,0.0,52549.0,44136.0,143.0,4008.0,326502.0,1.0,1.0,162383.0,PAN-PRI-PRD,49.730000000000004
1416,0.0,0.0,0.0,0.0,0.0,31041.0,0.0,4799.0,1894.0,2362.0,0.0,36217.0,44491.0,88.0,3178.0,309534.0,1.0,1.0,124070.0,PVEM-PT-MORENA,40.08
1417,0.0,0.0,0.0,0.0,0.0,45730.0,0.0,5622.0,807.0,6657.0,0.0,43069.0,53410.0,61.0,3946.0,275878.0,1.0,1.0,159302.0,PVEM-PT-MORENA,57.74
1418,0.0,0.0,0.0,0.0,0.0,48405.0,0.0,2604.0,714.0,3433.0,0.0,64082.0,44831.0,95.0,5082.0,296311.0,1.0,1.0,169246.0,PAN-PRI-PRD,57.120000000000005
1419,0.0,0.0,0.0,0.0,0.0,52788.0,0.0,3207.0,1520.0,7290.0,0.0,46436.0,56202.0,97.0,5051.0,309934.0,1.0,1.0,172591.0,PVEM-PT-MORENA,55.69
1420,0.0,0.0,0.0,0.0,0.0,36422.0,0.0,3701.0,1288.0,2850.0,0.0,42336.0,39193.0,128.0,3315.0,309352.0,1.0,1.0,129233.0,PAN-PRI-PRD,41.78
1501,0.0,0.0,0.0,0.0,0.0,7198.0,0.0,4980.0,5441.0,5729.0,0.0,99439.0,92818.0,75.0,5555.0,321012.0,1.0,1.0,221235.0,PAN-PRI-PRD,68.92
1502,0.0,0.0,0.0,0.0,0.0,7701.0,0.0,3780.0,3989.0,3618.0,0.0,47993.0,70645.0,119.0,3637.0,290517.0,1.0,1.0,141482.0,PVEM-PT-MORENA,48.699999999999996
1503,0.0,0.0,0.0,0.0,0.0,16369.0,0.0,8067.0,2940.0,8415.0,0.0,86571.0,79079.0,93.0,5373.0,325312.0,1.0,1.0,206907.0,PAN-PRI-PRD,63.6
1504,27113.0,45592.0,2423.0,0.0,0.0,6277.0,0.0,3704.0,4776.0,3802.0,0.0,0.0,65490.0,121.0,4157.0,305942.0,1.0,0.0,163455.0,PVEM-PT-MORENA,53.43
1505,33982.0,56226.0,2566.0,0.0,0.0,3530.0,0.0,3583.0,4727.0,4211.0,0.0,0.0,68382.0,227.0,4202.0,289197.0,1.0,0.0,181636.0,PVEM-PT-MORENA,62.81
1506,0.0,0.0,0.0,0.0,0.0,7067.0,0.0,3308.0,6059.0,4216.0,0.0,59696.0,68529.0,179.0,3579.0,293110.0,1.0,1.0,152633.0,PVEM-PT-MORENA,52.07000000000001
1507,0.0,0.0,0.0,9033.0,2783.0,6643.0,64265.0,2358.0,2064.0,2751.0,0.0,80931.0,0.0,137.0,4195.0,309515.0,0.0,1.0,175160.0,PAN-PRI-PRD,56.589999999999996
1508,15993.0,33057.0,2766.0,6327.0,2170.0,3542.0,54810.0,1990.0,994.0,3656.0,0.0,0.0,0.0,107.0,3991.0,257850.0,0.0,0.0,129403.0,MORENA,50.19
1509,0.0,0.0,0.0,12617.0,2814.0,14915.0,43688.0,3868.0,1751.0,1328.0,0.0,97153.0,0.0,44.0,6539.0,296782.0,0.0,1.0,184717.0,PAN-PRI-PRD,62.239999999999995
1510,10568.0,31548.0,8398.0,3037.0,1635.0,3102.0,56439.0,1789.0,1106.0,2668.0,0.0,0.0,0.0,164.0,4034.0,267583.0,0.0,0.0,124488.0,MORENA,46.52
1511,11296.0,38560.0,6291.0,4494.0,1898.0,3472.0,57216.0,1844.0,1570.0,2786.0,0.0,0.0,0.0,183.0,4439.0,285421.0,0.0,0.0,134049.0,MORENA,46.97
1512,6624.0,45281.0,2010.0,0.0,0.0,4285.0,0.0,1774.0,1168.0,5875.0,0.0,0.0,61966.0,113.0,3774.0,272186.0,1.0,0.0,132870.0,PVEM-PT-MORENA,48.82
1513,13127.0,36401.0,5502.0,3998.0,1795.0,3776.0,59877.0,1877.0,946.0,2367.0,0.0,0.0,0.0,173.0,4611.0,266188.0,0.0,0.0,134450.0,MORENA,50.51
1514,0.0,0.0,0.0,0.0,0.0,5492.0,0.0,2225.0,1341.0,3116.0,0.0,86439.0,63815.0,137.0,3646.0,304518.0,1.0,1.0,166211.0,PAN-PRI-PRD,54.58
1515,0.0,0.0,0.0,0.0,0.0,4850.0,0.0,2357.0,1552.0,3995.0,0.0,86529.0,60379.0,100.0,3652.0,309891.0,1.0,1.0,163414.0,PAN-PRI-PRD,52.73
1516,12809.0,37634.0,3659.0,0.0,0.0,3167.0,0.0,2249.0,921.0,2206.0,0.0,0.0,67126.0,90.0,4326.0,293963.0,1.0,0.0,134187.0,PVEM-PT-MORENA,45.65
1517,11337.0,35272.0,3984.0,3294.0,2757.0,3468.0,54189.0,1992.0,1108.0,2172.0,0.0,0.0,0.0,167.0,4148.0,253275.0,0.0,0.0,123888.0,MORENA,48.91
1518,76587.0,47566.0,7214.0,4646.0,2900.0,6036.0,49466.0,2819.0,1251.0,4593.0,0.0,0.0,0.0,68.0,5273.0,325934.0,0.0,0.0,208419.0,PAN,63.949999999999996
1519,0.0,0.0,0.0,4615.0,2173.0,5094.0,63486.0,1912.0,1208.0,3518.0,0.0,89683.0,0.0,162.0,4573.0,315468.0,0.0,1.0,176424.0,PAN-PRI-PRD,55.92
1520,0.0,0.0,0.0,2952.0,1846.0,28967.0,60062.0,1694.0,832.0,1759.0,0.0,47184.0,0.0,98.0,4236.0,283370.0,0.0,1.0,149630.0,MORENA,52.800000000000004
1521,8480.0,42822.0,6957.0,13288.0,1982.0,11075.0,57669.0,5397.0,3879.0,6543.0,0.0,0.0,0.0,91.0,5119.0,272352.0,0.0,0.0,163302.0,MORENA,59.96
1522,76344.0,35249.0,2483.0,3860.0,3782.0,7664.0,50568.0,3056.0,2368.0,2858.0,0.0,0.0,0.0,149.0,6351.0,358146.0,0.0,0.0,194732.0,PAN,54.37
1523,16546.0,62636.0,4778.0,16501.0,5676.0,3029.0,63760.0,6304.0,3032.0,5182.0,0.0,0.0,0.0,112.0,5822.0,312635.0,0.0,0.0,193378.0,MORENA,61.85000000000001
1524,0.0,0.0,0.0,0.0,0.0,8582.0,0.0,5252.0,1505.0,2963.0,0.0,66925.0,65883.0,126.0,4514.0,340407.0,1.0,1.0,155750.0,PAN-PRI-PRD,45.75
1525,3212.0,44873.0,1632.0,2170.0,1988.0,2028.0,57495.0,1430.0,714.0,1574.0,0.0,0.0,0.0,64.0,3557.0,264210.0,0.0,0.0,120737.0,MORENA,45.7
1526,0.0,0.0,0.0,0.0,0.0,4537.0,0.0,5195.0,2264.0,3554.0,0.0,79733.0,75003.0,120.0,4591.0,332957.0,1.0,1.0,174997.0,PAN-PRI-PRD,52.559999999999995
1527,0.0,0.0,0.0,0.0,0.0,12855.0,0.0,5107.0,4404.0,6593.0,0.0,106628.0,71370.0,172.0,4477.0,334262.0,1.0,1.0,211606.0,PAN-PRI-PRD,63.31
1528,33114.0,32292.0,11226.0,12665.0,2880.0,3723.0,58748.0,2091.0,2122.0,12268.0,0.0,0.0,0.0,235.0,5447.0,347434.0,0.0,0.0,176811.0,MORENA,50.89
1529,0.0,0.0,0.0,2684.0,2395.0,30974.0,64134.0,2471.0,1013.0,3356.0,0.0,46278.0,0.0,131.0,4750.0,297267.0,0.0,1.0,158186.0,MORENA,53.21
1530,4178.0,52278.0,2925.0,0.0,0.0,1955.0,0.0,2745.0,1021.0,3623.0,0.0,0.0,59962.0,85.0,3574.0,285102.0,1.0,0.0,132346.0,PVEM-PT-MORENA,46.42
1531,0.0,0.0,0.0,2869.0,2348.0,31868.0,63124.0,2257.0,903.0,2187.0,0.0,37671.0,0.0,97.0,4618.0,290544.0,0.0,1.0,147942.0,MORENA,50.92
1532,0.0,0.0,0.0,0.0,0.0,4504.0,0.0,2118.0,2013.0,2831.0,0.0,44028.0,74717.0,92.0,4774.0,271794.0,1.0,1.0,135077.0,PVEM-PT-MORENA,49.7
1533,0.0,0.0,0.0,7452.0,2925.0,6588.0,58650.0,2449.0,2216.0,2650.0,0.0,46251.0,0.0,89.0,4625.0,283478.0,0.0,1.0,133895.0,MORENA,47.23
1534,0.0,0.0,0.0,0.0,0.0,5300.0,0.0,4020.0,2652.0,4389.0,0.0,97337.0,74309.0,178.0,4569.0,339824.0,1.0,1.0,192754.0,PAN-PRI-PRD,56.720000000000006
1535,0.0,0.0,0.0,0.0,0.0,13261.0,0.0,6979.0,3385.0,5756.0,0.0,66148.0,76422.0,89.0,5486.0,300912.0,1.0,1.0,177526.0,PVEM-PT-MORENA,59.0
1536,0.0,0.0,0.0,13659.0,3261.0,4114.0,67698.0,4276.0,2880.0,4371.0,0.0,97277.0,0.0,49.0,6643.0,310693.0,0.0,1.0,204228.0,PAN-PRI-PRD,65.73
1537,21228.0,30317.0,2814.0,11267.0,2683.0,14279.0,63953.0,5721.0,5554.0,4933.0,0.0,0.0,0.0,953.0,5725.0,308152.0,0.0,0.0,169427.0,MORENA,54.98
1538,13929.0,36607.0,5005.0,20549.0,1797.0,3606.0,64680.0,3675.0,1965.0,3990.0,0.0,0.0,0.0,125.0,4671.0,307410.0,0.0,0.0,160599.0,MORENA,52.239999999999995
1539,0.0,0.0,0.0,0.0,0.0,3158.0,0.0,2453.0,1445.0,7040.0,0.0,60184.0,52943.0,121.0,3865.0,273868.0,1.0,1.0,131209.0,PAN-PRI-PRD,47.910000000000004
1540,0.0,0.0,0.0,22687.0,5845.0,6811.0,54082.0,6197.0,2246.0,4140.0,0.0,75419.0,0.0,160.0,6453.0,331766.0,0.0,1.0,184040.0,PAN-PRI-PRD,55.47
1541,0.0,0.0,0.0,0.0,0.0,4869.0,0.0,2400.0,1168.0,3006.0,0.0,93890.0,87564.0,198.0,4223.0,346331.0,1.0,1.0,197318.0,PAN-PRI-PRD,56.97
1601,0.0,0.0,0.0,5073.0,11248.0,2096.0,74453.0,1489.0,2104.0,2337.0,0.0,38120.0,0.0,55.0,6464.0,273083.0,0.0,1.0,143439.0,MORENA,52.53
1602,0.0,0.0,0.0,16776.0,13955.0,7895.0,38106.0,14892.0,1841.0,7851.0,0.0,59387.0,0.0,80.0,9066.0,327943.0,0.0,1.0,169849.0,PAN-PRI-PRD,51.790000000000006
1603,0.0,0.0,0.0,0.0,0.0,3776.0,0.0,4361.0,2907.0,2396.0,0.0,64859.0,74457.0,50.0,6544.0,274591.0,1.0,1.0,159350.0,PVEM-PT-MORENA,58.03
1604,0.0,0.0,0.0,10389.0,5842.0,10805.0,42251.0,4178.0,2187.0,5324.0,0.0,67345.0,0.0,49.0,5845.0,307056.0,0.0,1.0,154215.0,PAN-PRI-PRD,50.22
1605,0.0,0.0,0.0,5571.0,6889.0,10253.0,35523.0,3859.0,1015.0,2887.0,0.0,62650.0,0.0,76.0,4777.0,309510.0,0.0,1.0,133500.0,PAN-PRI-PRD,43.13
1606,0.0,0.0,0.0,17944.0,11842.0,9385.0,40288.0,2725.0,2799.0,2793.0,0.0,56347.0,0.0,85.0,7949.0,294450.0,0.0,1.0,152157.0,PAN-PRI-PRD,51.67
1607,0.0,0.0,0.0,8237.0,6453.0,8348.0,45677.0,9253.0,2642.0,4917.0,0.0,56571.0,0.0,44.0,7287.0,287467.0,0.0,1.0,149429.0,PAN-PRI-PRD,51.980000000000004
1608,0.0,0.0,0.0,7401.0,3263.0,3593.0,49381.0,3035.0,2020.0,2760.0,0.0,54284.0,0.0,147.0,6985.0,311253.0,0.0,1.0,132869.0,PAN-PRI-PRD,42.69
1609,0.0,0.0,0.0,3168.0,3409.0,2002.0,46475.0,969.0,569.0,1190.0,9286.0,40123.0,0.0,39.0,4376.0,251616.0,0.0,1.0,111606.0,MORENA,44.36
1610,0.0,0.0,0.0,9014.0,3946.0,4105.0,48319.0,2617.0,1933.0,2697.0,0.0,84639.0,0.0,149.0,6762.0,324936.0,0.0,1.0,164181.0,PAN-PRI-PRD,50.529999999999994
1611,0.0,0.0,0.0,13317.0,14846.0,3239.0,39982.0,8140.0,3955.0,5458.0,0.0,61093.0,0.0,55.0,9626.0,298413.0,0.0,1.0,159711.0,PAN-PRI-PRD,53.52
1612,0.0,0.0,0.0,0.0,0.0,3336.0,0.0,2865.0,2636.0,5902.0,0.0,42587.0,56363.0,519.0,5010.0,260155.0,1.0,1.0,119218.0,PVEM-PT-MORENA,45.83
1701,43993.0,15685.0,4867.0,5637.0,4744.0,5072.0,47415.0,4178.0,2332.0,15803.0,0.0,0.0,0.0,307.0,6575.0,312202.0,0.0,0.0,156608.0,MORENA,50.160000000000004
1702,19233.0,13864.0,10112.0,0.0,0.0,9890.0,0.0,3778.0,11086.0,9290.0,0.0,0.0,59867.0,147.0,6743.0,298877.0,1.0,0.0,144010.0,PVEM-PT-MORENA,48.18
1703,17172.0,13607.0,3829.0,5671.0,9078.0,13411.0,55074.0,16775.0,6664.0,6461.0,0.0,0.0,0.0,164.0,7538.0,298693.0,0.0,0.0,155444.0,MORENA,52.04
1704,8404.0,11128.0,3119.0,0.0,0.0,11821.0,0.0,3282.0,32236.0,25630.0,0.0,0.0,62340.0,107.0,7440.0,301325.0,1.0,0.0,165507.0,PVEM-PT-MORENA,54.93
1705,20813.0,18145.0,2897.0,9121.0,11139.0,13355.0,54113.0,11781.0,9580.0,13088.0,0.0,0.0,0.0,126.0,10276.0,284986.0,0.0,0.0,174434.0,MORENA,61.21
1801,0.0,0.0,0.0,0.0,0.0,30537.0,0.0,3946.0,3874.0,4752.0,0.0,35219.0,74292.0,47.0,7866.0,263259.0,1.0,1.0,160533.0,PVEM-PT-MORENA,60.980000000000004
1802,0.0,0.0,0.0,0.0,0.0,25307.0,0.0,6933.0,5023.0,4193.0,0.0,31958.0,83531.0,137.0,5351.0,317068.0,1.0,1.0,162433.0,PVEM-PT-MORENA,51.23
1803,0.0,0.0,0.0,0.0,0.0,19475.0,0.0,2714.0,4820.0,5247.0,0.0,42448.0,71921.0,56.0,7147.0,311181.0,1.0,1.0,153828.0,PVEM-PT-MORENA,49.43
1901,104458.0,19267.0,571.0,2281.0,1154.0,25629.0,18563.0,934.0,958.0,2077.0,0.0,0.0,0.0,159.0,3792.0,333592.0,0.0,0.0,179843.0,PAN,53.910000000000004
1902,33409.0,65907.0,902.0,0.0,0.0,35216.0,0.0,1701.0,782.0,1774.0,0.0,0.0,35363.0,63.0,3538.0,363234.0,1.0,0.0,178655.0,PRI,49.18
1903,35091.0,22355.0,2124.0,0.0,0.0,35327.0,0.0,1273.0,1122.0,1833.0,0.0,0.0,35433.0,47.0,3318.0,321784.0,1.0,0.0,137923.0,PVEM-PT-MORENA,42.86
1904,102762.0,23960.0,786.0,3504.0,2326.0,37210.0,29453.0,1174.0,838.0,1576.0,0.0,0.0,0.0,69.0,4225.0,367332.0,0.0,0.0,207883.0,PAN,56.589999999999996
1905,11599.0,55072.0,486.0,0.0,0.0,22807.0,0.0,747.0,908.0,1088.0,0.0,0.0,24719.0,47.0,3840.0,261261.0,1.0,0.0,121313.0,PRI,46.43
1906,69724.0,63223.0,1166.0,2622.0,3608.0,49974.0,24770.0,1851.0,785.0,1453.0,0.0,0.0,0.0,114.0,4796.0,364495.0,0.0,0.0,224086.0,PAN,61.480000000000004
1907,48250.0,32426.0,2124.0,0.0,0.0,47323.0,0.0,2796.0,3997.0,4707.0,0.0,0.0,49228.0,387.0,5828.0,446531.0,1.0,0.0,197066.0,PVEM-PT-MORENA,44.13
1908,37804.0,43421.0,867.0,0.0,0.0,33545.0,0.0,1720.0,903.0,1648.0,0.0,0.0,34920.0,55.0,3794.0,318955.0,1.0,0.0,158677.0,PRI,49.75
1909,51831.0,71628.0,852.0,8245.0,6269.0,22015.0,28885.0,1089.0,2169.0,1092.0,0.0,0.0,0.0,77.0,7654.0,345421.0,0.0,0.0,201806.0,PRI,58.42
1910,49811.0,72076.0,945.0,0.0,0.0,42035.0,0.0,1050.0,739.0,1298.0,0.0,0.0,24161.0,78.0,4043.0,336042.0,1.0,0.0,196236.0,PRI,58.4
1911,60829.0,43223.0,944.0,0.0,0.0,31293.0,0.0,2416.0,1121.0,1167.0,0.0,0.0,33772.0,68.0,4207.0,333407.0,1.0,0.0,179040.0,PAN,53.7
1912,37210.0,41864.0,995.0,0.0,0.0,32199.0,0.0,1517.0,1068.0,2971.0,0.0,0.0,39661.0,47.0,4349.0,397641.0,1.0,0.0,161881.0,PRI,40.71
2001,0.0,0.0,0.0,0.0,0.0,8797.0,0.0,4748.0,4291.0,5636.0,0.0,58336.0,100759.0,311.0,6462.0,280055.0,1.0,1.0,189340.0,PVEM-PT-MORENA,67.61
2002,0.0,0.0,0.0,8837.0,10098.0,4244.0,73994.0,3419.0,4547.0,3654.0,0.0,62767.0,0.0,24.0,7418.0,283688.0,0.0,1.0,179002.0,MORENA,63.1
2003,0.0,0.0,0.0,0.0,0.0,4739.0,0.0,3898.0,3261.0,10444.0,0.0,43023.0,94183.0,73.0,6163.0,307933.0,1.0,1.0,165784.0,PVEM-PT-MORENA,53.839999999999996
2004,0.0,0.0,0.0,0.0,0.0,3685.0,0.0,3028.0,2172.0,4169.0,0.0,36017.0,90211.0,58.0,6450.0,327219.0,1.0,1.0,145790.0,PVEM-PT-MORENA,44.55
2005,0.0,0.0,0.0,0.0,0.0,3058.0,0.0,3131.0,2887.0,4017.0,0.0,33183.0,106845.0,49.0,5132.0,281467.0,1.0,1.0,158302.0,PVEM-PT-MORENA,56.24
2006,0.0,0.0,0.0,6177.0,18403.0,3156.0,65285.0,4644.0,2869.0,5605.0,0.0,37628.0,0.0,55.0,7949.0,288511.0,0.0,1.0,151771.0,MORENA,52.6
2007,0.0,0.0,0.0,0.0,0.0,4153.0,0.0,5492.0,3745.0,4209.0,0.0,59685.0,108328.0,55.0,5028.0,288885.0,1.0,1.0,190695.0,PVEM-PT-MORENA,66.01
2008,0.0,0.0,0.0,0.0,0.0,6329.0,0.0,7174.0,2790.0,6785.0,0.0,50541.0,87866.0,102.0,4873.0,323518.0,1.0,1.0,166460.0,PVEM-PT-MORENA,51.449999999999996
2009,0.0,0.0,0.0,0.0,0.0,3055.0,0.0,2914.0,4954.0,4033.0,0.0,73865.0,81516.0,57.0,7625.0,289014.0,1.0,1.0,178019.0,PVEM-PT-MORENA,61.6
2010,0.0,0.0,0.0,13943.0,9480.0,3657.0,69872.0,3673.0,2642.0,5813.0,0.0,53781.0,0.0,95.0,9520.0,327513.0,0.0,1.0,172476.0,MORENA,52.66
2101,0.0,0.0,0.0,0.0,0.0,20645.0,0.0,7699.0,3645.0,4528.0,0.0,74658.0,80586.0,109.0,10233.0,292805.0,1.0,1.0,202103.0,PVEM-PT-MORENA,69.02000000000001
2102,0.0,0.0,0.0,0.0,0.0,6443.0,0.0,3674.0,5369.0,8611.0,0.0,81846.0,91073.0,139.0,9359.0,297916.0,1.0,1.0,206514.0,PVEM-PT-MORENA,69.32000000000001
2103,0.0,0.0,0.0,0.0,0.0,19506.0,0.0,8237.0,4087.0,9831.0,0.0,64854.0,78607.0,85.0,9291.0,302329.0,1.0,1.0,194498.0,PVEM-PT-MORENA,64.33
2104,0.0,0.0,0.0,0.0,0.0,10119.0,0.0,9220.0,6413.0,5270.0,0.0,69610.0,79623.0,54.0,11312.0,288212.0,1.0,1.0,191621.0,PVEM-PT-MORENA,66.49000000000001
2105,0.0,0.0,0.0,0.0,0.0,12646.0,0.0,8392.0,6099.0,8339.0,0.0,49565.0,75034.0,177.0,7491.0,315026.0,1.0,1.0,167743.0,PVEM-PT-MORENA,53.25
2106,0.0,0.0,0.0,0.0,0.0,4217.0,0.0,1930.0,1472.0,3064.0,0.0,49673.0,61972.0,94.0,4608.0,319034.0,1.0,1.0,127030.0,PVEM-PT-MORENA,39.82
2107,0.0,0.0,0.0,0.0,0.0,10425.0,0.0,5515.0,7991.0,8169.0,0.0,52470.0,84163.0,188.0,8598.0,308443.0,1.0,1.0,177519.0,PVEM-PT-MORENA,57.550000000000004
2108,0.0,0.0,0.0,0.0,0.0,23793.0,0.0,4523.0,2592.0,6956.0,0.0,73550.0,81612.0,65.0,9337.0,290869.0,1.0,1.0,202428.0,PVEM-PT-MORENA,69.59
2109,0.0,0.0,0.0,0.0,0.0,3796.0,0.0,1796.0,1416.0,2887.0,0.0,74831.0,65674.0,128.0,4978.0,339027.0,1.0,1.0,155506.0,PAN-PRI-PRD,45.87
2110,0.0,0.0,0.0,0.0,0.0,7730.0,0.0,9973.0,4387.0,6959.0,0.0,81367.0,70626.0,325.0,7210.0,357851.0,1.0,1.0,188577.0,PAN-PRI-PRD,52.7
2111,0.0,0.0,0.0,0.0,0.0,4092.0,0.0,2498.0,2152.0,3102.0,0.0,62013.0,58750.0,132.0,5659.0,334724.0,1.0,1.0,138398.0,PAN-PRI-PRD,41.349999999999994
2112,0.0,0.0,0.0,0.0,0.0,4815.0,0.0,2211.0,1231.0,3257.0,0.0,90692.0,65924.0,154.0,5404.0,337166.0,1.0,1.0,173688.0,PAN-PRI-PRD,51.51
2113,0.0,0.0,0.0,0.0,0.0,7678.0,0.0,5164.0,6560.0,7939.0,0.0,60706.0,83616.0,149.0,8486.0,324476.0,1.0,1.0,180298.0,PVEM-PT-MORENA,55.57
2114,0.0,0.0,0.0,0.0,0.0,6340.0,0.0,5772.0,5056.0,5911.0,0.0,72250.0,95692.0,190.0,8749.0,315327.0,1.0,1.0,199960.0,PVEM-PT-MORENA,63.41
2115,0.0,0.0,0.0,0.0,0.0,6384.0,0.0,7116.0,1898.0,8847.0,0.0,41131.0,86030.0,402.0,7598.0,316732.0,1.0,1.0,159406.0,PVEM-PT-MORENA,50.33
2201,59436.0,33950.0,1562.0,9896.0,1448.0,2482.0,31480.0,2355.0,3427.0,5884.0,0.0,0.0,0.0,54.0,6994.0,269449.0,0.0,0.0,158968.0,PAN,59.0
2202,61347.0,24919.0,2739.0,0.0,0.0,2989.0,0.0,3514.0,3977.0,4008.0,0.0,0.0,48353.0,112.0,5147.0,306248.0,1.0,0.0,157105.0,PAN,51.300000000000004
2203,85358.0,18274.0,1707.0,0.0,0.0,4151.0,0.0,2468.0,1824.0,2968.0,0.0,0.0,63318.0,103.0,4559.0,408415.0,1.0,0.0,184730.0,PAN,45.23
2204,107568.0,19438.0,1908.0,5434.0,1896.0,3537.0,51136.0,2143.0,1772.0,2698.0,0.0,0.0,0.0,158.0,4971.0,377186.0,0.0,0.0,202659.0,PAN,53.73
2205,96816.0,32815.0,2031.0,8051.0,2861.0,3435.0,41199.0,2605.0,2595.0,3579.0,0.0,0.0,0.0,85.0,5697.0,375080.0,0.0,0.0,201769.0,PAN,53.790000000000006
2301,0.0,0.0,0.0,0.0,0.0,6246.0,0.0,4320.0,2570.0,10859.0,0.0,59203.0,81558.0,279.0,6930.0,381428.0,1.0,1.0,171965.0,PVEM-PT-MORENA,45.08
2302,0.0,0.0,0.0,0.0,0.0,7966.0,0.0,3268.0,5414.0,8013.0,0.0,44676.0,83259.0,343.0,5682.0,290122.0,1.0,1.0,158621.0,PVEM-PT-MORENA,54.669999999999995
2303,0.0,0.0,0.0,0.0,0.0,2962.0,0.0,7885.0,1439.0,11594.0,0.0,17868.0,57489.0,156.0,4894.0,272767.0,1.0,1.0,104287.0,PVEM-PT-MORENA,38.23
2304,0.0,0.0,0.0,0.0,0.0,5160.0,0.0,5868.0,1836.0,15802.0,0.0,51502.0,66764.0,258.0,5750.0,378254.0,1.0,1.0,152940.0,PVEM-PT-MORENA,40.43
2401,0.0,0.0,0.0,0.0,0.0,14230.0,0.0,5204.0,2267.0,2397.0,0.0,56518.0,74007.0,117.0,9732.0,273579.0,1.0,1.0,164472.0,PVEM-PT-MORENA,60.12
2402,0.0,0.0,0.0,68133.0,3668.0,8777.0,29708.0,2550.0,3864.0,1916.0,0.0,65606.0,0.0,143.0,12339.0,343231.0,0.0,1.0,196704.0,PVEM,57.31
2403,0.0,0.0,0.0,0.0,0.0,7536.0,0.0,4415.0,2566.0,1960.0,0.0,66790.0,67467.0,51.0,9621.0,274741.0,1.0,1.0,160406.0,PVEM-PT-MORENA,58.379999999999995
2404,0.0,0.0,0.0,0.0,0.0,4754.0,0.0,6302.0,20278.0,5208.0,0.0,37021.0,68114.0,127.0,7757.0,246737.0,1.0,1.0,149561.0,PVEM-PT-MORENA,60.62
2405,0.0,0.0,0.0,0.0,0.0,5368.0,0.0,2104.0,1962.0,2304.0,0.0,90088.0,74485.0,279.0,5888.0,326190.0,1.0,1.0,182478.0,PAN-PRI-PRD,55.94
2406,0.0,0.0,0.0,0.0,0.0,5843.0,0.0,2656.0,3115.0,3500.0,0.0,51629.0,94716.0,296.0,6742.0,318876.0,1.0,1.0,168497.0,PVEM-PT-MORENA,52.839999999999996
2407,0.0,0.0,0.0,0.0,0.0,5172.0,0.0,5612.0,22335.0,1947.0,0.0,59757.0,88224.0,52.0,14712.0,284946.0,1.0,1.0,197811.0,PVEM-PT-MORENA,69.42
2501,0.0,0.0,0.0,0.0,0.0,8674.0,0.0,3218.0,1657.0,3400.0,0.0,42463.0,78085.0,41.0,4645.0,308879.0,1.0,1.0,142183.0,PVEM-PT-MORENA,46.03
2502,0.0,0.0,0.0,0.0,0.0,7780.0,0.0,2295.0,2462.0,3908.0,0.0,52131.0,91829.0,60.0,4466.0,339443.0,1.0,1.0,164931.0,PVEM-PT-MORENA,48.59
2503,0.0,0.0,0.0,0.0,0.0,6905.0,0.0,4008.0,3728.0,2004.0,0.0,63600.0,92063.0,24.0,5801.0,332654.0,1.0,1.0,178133.0,PVEM-PT-MORENA,53.55
2504,0.0,0.0,0.0,7455.0,728.0,4097.0,78956.0,2734.0,1990.0,1404.0,0.0,59795.0,0.0,40.0,4693.0,315556.0,0.0,1.0,161892.0,MORENA,51.300000000000004
2505,0.0,0.0,0.0,0.0,0.0,6915.0,0.0,3469.0,1502.0,3832.0,0.0,55989.0,80843.0,119.0,3685.0,319006.0,1.0,1.0,156354.0,PVEM-PT-MORENA,49.01
2506,0.0,0.0,0.0,3847.0,8044.0,5603.0,72596.0,6968.0,1431.0,3309.0,0.0,53656.0,0.0,67.0,5735.0,312006.0,0.0,1.0,161256.0,MORENA,51.68000000000001
2507,0.0,0.0,0.0,0.0,0.0,6495.0,0.0,3049.0,1729.0,2129.0,0.0,50509.0,73314.0,166.0,4084.0,324610.0,1.0,1.0,141475.0,PVEM-PT-MORENA,43.580000000000005
2601,0.0,0.0,0.0,5568.0,4151.0,6267.0,48358.0,4247.0,955.0,3847.0,0.0,37355.0,0.0,150.0,3619.0,302495.0,0.0,1.0,114517.0,MORENA,37.86
2602,0.0,0.0,0.0,0.0,0.0,9047.0,0.0,10032.0,1905.0,2514.0,0.0,48059.0,61359.0,102.0,4763.0,352802.0,1.0,1.0,137781.0,PVEM-PT-MORENA,39.050000000000004
2603,0.0,0.0,0.0,0.0,0.0,16508.0,0.0,1494.0,1229.0,2429.0,0.0,44890.0,65710.0,141.0,3450.0,327277.0,1.0,1.0,135851.0,PVEM-PT-MORENA,41.510000000000005
2604,0.0,0.0,0.0,5027.0,18324.0,10802.0,60709.0,2190.0,2462.0,4118.0,0.0,42460.0,0.0,91.0,5276.0,294879.0,0.0,1.0,151459.0,MORENA,51.35999999999999
2605,0.0,0.0,0.0,0.0,0.0,10305.0,0.0,1757.0,715.0,2087.0,0.0,62682.0,64919.0,132.0,3611.0,310854.0,1.0,1.0,146208.0,PVEM-PT-MORENA,47.03
2606,0.0,0.0,0.0,3143.0,3567.0,16486.0,60877.0,2551.0,1265.0,3362.0,0.0,40720.0,0.0,120.0,3631.0,324838.0,0.0,1.0,135722.0,MORENA,41.78
2607,0.0,0.0,0.0,0.0,0.0,7182.0,0.0,2585.0,2995.0,1933.0,0.0,43706.0,74457.0,312.0,3931.0,274599.0,1.0,1.0,137101.0,PVEM-PT-MORENA,49.93
2701,0.0,0.0,0.0,18607.0,1361.0,2147.0,87842.0,7037.0,2727.0,1121.0,0.0,22155.0,0.0,63.0,4009.0,255771.0,0.0,1.0,147069.0,MORENA,57.49999999999999
2702,0.0,0.0,0.0,6160.0,3429.0,2131.0,95430.0,2717.0,2772.0,1349.0,0.0,47011.0,0.0,307.0,4320.0,311717.0,0.0,1.0,165626.0,MORENA,53.13
2703,0.0,0.0,0.0,1817.0,1934.0,4191.0,84500.0,3004.0,1940.0,2370.0,0.0,41382.0,0.0,43.0,4117.0,252245.0,0.0,1.0,145298.0,MORENA,57.599999999999994
2704,0.0,0.0,0.0,3859.0,2826.0,3187.0,92162.0,2108.0,1916.0,3300.0,0.0,32002.0,0.0,102.0,4445.0,310991.0,0.0,1.0,145907.0,MORENA,46.92
2705,0.0,0.0,0.0,16170.0,9500.0,7368.0,95805.0,4606.0,9400.0,10698.0,0.0,25119.0,0.0,55.0,6224.0,313335.0,0.0,1.0,184945.0,MORENA,59.019999999999996
2706,0.0,0.0,0.0,6428.0,1880.0,11935.0,89139.0,2423.0,1908.0,3381.0,0.0,26430.0,0.0,79.0,4579.0,308706.0,0.0,1.0,148182.0,MORENA,48.0
2801,59758.0,11630.0,955.0,0.0,0.0,3267.0,0.0,1958.0,1478.0,2249.0,0.0,0.0,66422.0,108.0,3209.0,324668.0,1.0,0.0,151034.0,PVEM-PT-MORENA,46.52
2802,49815.0,12285.0,1163.0,0.0,0.0,4230.0,0.0,5578.0,1316.0,2299.0,0.0,0.0,56755.0,51.0,3184.0,288784.0,1.0,0.0,136676.0,PVEM-PT-MORENA,47.33
2803,50591.0,21123.0,1925.0,0.0,0.0,3881.0,0.0,2516.0,1684.0,1702.0,0.0,0.0,68951.0,70.0,3733.0,307311.0,1.0,0.0,156176.0,PVEM-PT-MORENA,50.82
2804,37205.0,11810.0,1083.0,0.0,0.0,3142.0,0.0,1838.0,1048.0,1332.0,0.0,0.0,86414.0,93.0,2793.0,314138.0,1.0,0.0,146758.0,PVEM-PT-MORENA,46.72
2805,75147.0,28546.0,1503.0,0.0,0.0,8891.0,0.0,2558.0,2966.0,1836.0,0.0,0.0,63793.0,81.0,3726.0,307769.0,1.0,0.0,189047.0,PAN,61.419999999999995
2806,73171.0,26955.0,1611.0,7381.0,6940.0,6465.0,60542.0,2576.0,2108.0,1616.0,0.0,0.0,0.0,52.0,5981.0,287847.0,0.0,0.0,195398.0,PAN,67.88
2807,54402.0,6969.0,2926.0,0.0,0.0,5027.0,0.0,4944.0,1698.0,1684.0,0.0,0.0,82118.0,91.0,3278.0,298881.0,1.0,0.0,163137.0,PVEM-PT-MORENA,54.58
2808,79493.0,4732.0,1119.0,0.0,0.0,5883.0,0.0,2456.0,2170.0,1102.0,0.0,0.0,76557.0,120.0,2773.0,300467.0,1.0,0.0,176405.0,PAN,58.709999999999994
2809,36402.0,7803.0,1359.0,0.0,0.0,3871.0,0.0,4633.0,1685.0,1229.0,0.0,0.0,66722.0,37.0,3000.0,306122.0,1.0,0.0,126741.0,PVEM-PT-MORENA,41.4
2901,0.0,0.0,0.0,0.0,0.0,5538.0,0.0,4806.0,9522.0,7057.0,30928.0,65859.0,75684.0,120.0,10574.0,318970.0,1.0,1.0,210088.0,PVEM-PT-MORENA,65.86
2902,0.0,0.0,0.0,0.0,0.0,11809.0,0.0,5436.0,9520.0,12054.0,0.0,57171.0,111663.0,137.0,10828.0,328630.0,1.0,1.0,218618.0,PVEM-PT-MORENA,66.52
2903,0.0,0.0,0.0,5829.0,14700.0,6834.0,86926.0,5873.0,11861.0,8588.0,0.0,65678.0,0.0,83.0,12088.0,325798.0,0.0,1.0,218460.0,MORENA,67.05
3001,0.0,0.0,0.0,0.0,0.0,3455.0,0.0,8005.0,3655.0,5344.0,0.0,50708.0,94160.0,316.0,4592.0,248398.0,1.0,1.0,170235.0,PVEM-PT-MORENA,68.53
3002,0.0,0.0,0.0,0.0,0.0,7069.0,0.0,3786.0,3190.0,2596.0,0.0,81585.0,82192.0,156.0,6985.0,257336.0,1.0,1.0,187559.0,PVEM-PT-MORENA,72.88
3003,0.0,0.0,0.0,0.0,0.0,13604.0,0.0,3571.0,2726.0,10617.0,0.0,43162.0,73368.0,91.0,4183.0,259159.0,1.0,1.0,151322.0,PVEM-PT-MORENA,58.39
3004,0.0,0.0,0.0,0.0,0.0,4899.0,0.0,1758.0,1696.0,1961.0,0.0,66572.0,75857.0,70.0,3314.0,340227.0,1.0,1.0,156127.0,PVEM-PT-MORENA,45.89
3005,0.0,0.0,0.0,0.0,0.0,7055.0,0.0,5500.0,3593.0,6423.0,0.0,41953.0,67528.0,204.0,3717.0,254444.0,1.0,1.0,135973.0,PVEM-PT-MORENA,53.44
3006,0.0,0.0,0.0,13259.0,6803.0,19208.0,68655.0,5127.0,4066.0,3045.0,0.0,63904.0,0.0,35.0,5194.0,298662.0,0.0,1.0,189296.0,MORENA,63.38
3007,0.0,0.0,0.0,11371.0,8251.0,12108.0,61963.0,8873.0,9138.0,5715.0,0.0,46332.0,0.0,64.0,7874.0,296007.0,0.0,1.0,171689.0,MORENA,57.99999999999999
3008,0.0,0.0,0.0,0.0,0.0,27188.0,0.0,5101.0,8449.0,16474.0,0.0,58256.0,97242.0,84.0,8490.0,334411.0,1.0,1.0,221284.0,PVEM-PT-MORENA,66.17
3009,0.0,0.0,0.0,7771.0,6511.0,15091.0,62147.0,3983.0,8023.0,4410.0,0.0,70561.0,0.0,89.0,8122.0,290671.0,0.0,1.0,186708.0,PAN-PRI-PRD,64.23
3010,0.0,0.0,0.0,5094.0,3844.0,12127.0,71541.0,4265.0,2612.0,3798.0,0.0,66117.0,0.0,174.0,6330.0,329779.0,0.0,1.0,175902.0,MORENA,53.339999999999996
3011,0.0,0.0,0.0,3888.0,3239.0,9386.0,93989.0,4130.0,1530.0,5443.0,0.0,37587.0,0.0,106.0,4697.0,303140.0,0.0,1.0,163995.0,MORENA,54.1
3012,0.0,0.0,0.0,0.0,0.0,11013.0,0.0,2771.0,2966.0,3178.0,0.0,92189.0,73930.0,101.0,4244.0,339448.0,1.0,1.0,190392.0,PAN-PRI-PRD,56.089999999999996
3013,0.0,0.0,0.0,0.0,0.0,20464.0,0.0,3637.0,2425.0,5122.0,0.0,77115.0,88226.0,81.0,6510.0,313219.0,1.0,1.0,203580.0,PVEM-PT-MORENA,65.0
3014,0.0,0.0,0.0,0.0,0.0,3827.0,0.0,5472.0,3279.0,6110.0,0.0,39868.0,97933.0,48.0,4905.0,280557.0,1.0,1.0,161442.0,PVEM-PT-MORENA,57.54
3015,0.0,0.0,0.0,0.0,0.0,15399.0,0.0,5355.0,4104.0,3092.0,0.0,78837.0,79989.0,98.0,5759.0,308333.0,1.0,1.0,192633.0,PVEM-PT-MORENA,62.480000000000004
3016,0.0,0.0,0.0,0.0,0.0,11575.0,0.0,3926.0,4609.0,7524.0,0.0,60293.0,94208.0,239.0,5850.0,315982.0,1.0,1.0,188224.0,PVEM-PT-MORENA,59.57
3017,0.0,0.0,0.0,0.0,0.0,15174.0,0.0,4788.0,5872.0,8434.0,0.0,44151.0,95803.0,72.0,7860.0,292926.0,1.0,1.0,182154.0,PVEM-PT-MORENA,62.18
3018,0.0,0.0,0.0,0.0,0.0,9421.0,0.0,8810.0,8000.0,9079.0,0.0,64458.0,95547.0,84.0,9732.0,299378.0,1.0,1.0,205131.0,PVEM-PT-MORENA,68.52000000000001
3019,0.0,0.0,0.0,0.0,0.0,28956.0,0.0,6116.0,8177.0,5477.0,0.0,38755.0,89380.0,59.0,6897.0,312803.0,1.0,1.0,183817.0,PVEM-PT-MORENA,58.76
3020,0.0,0.0,0.0,3426.0,3425.0,11110.0,96941.0,6342.0,7045.0,7982.0,0.0,50342.0,0.0,71.0,7074.0,304779.0,0.0,1.0,193758.0,MORENA,63.57000000000001
3101,87609.0,65892.0,2277.0,3549.0,2568.0,3474.0,53694.0,2129.0,1176.0,2407.0,0.0,0.0,0.0,71.0,5053.0,300533.0,0.0,0.0,229899.0,PAN,76.5
3102,57804.0,49277.0,8023.0,0.0,0.0,10620.0,0.0,6657.0,1389.0,3929.0,0.0,0.0,79357.0,44.0,6510.0,318248.0,1.0,0.0,223610.0,PVEM-PT-MORENA,70.26
3103,55580.0,45909.0,1348.0,1819.0,1478.0,3190.0,53650.0,1545.0,698.0,2043.0,0.0,0.0,0.0,89.0,5001.0,368668.0,0.0,0.0,172350.0,PAN,46.75
3104,96138.0,33671.0,1321.0,1989.0,1280.0,4821.0,49420.0,1797.0,671.0,2549.0,0.0,0.0,0.0,109.0,4714.0,360059.0,0.0,0.0,198480.0,PAN,55.120000000000005
3105,68360.0,53914.0,11019.0,0.0,0.0,9722.0,0.0,2948.0,1385.0,4404.0,0.0,0.0,76779.0,49.0,6561.0,312556.0,1.0,0.0,235141.0,PVEM-PT-MORENA,75.22999999999999
3201,0.0,0.0,0.0,0.0,0.0,3841.0,0.0,5290.0,992.0,6414.0,0.0,62247.0,69222.0,51.0,4962.0,288032.0,1.0,1.0,153019.0,PVEM-PT-MORENA,53.13
3202,0.0,0.0,0.0,0.0,0.0,7157.0,0.0,5007.0,1055.0,4380.0,0.0,80012.0,76233.0,68.0,6306.0,317403.0,1.0,1.0,180218.0,PAN-PRI-PRD,56.779999999999994
3203,0.0,0.0,0.0,0.0,0.0,6815.0,0.0,9284.0,1605.0,5742.0,0.0,67761.0,81360.0,97.0,7442.0,301068.0,1.0,1.0,180106.0,PVEM-PT-MORENA,59.81999999999999
3204,0.0,0.0,0.0,4952.0,17798.0,6940.0,62942.0,4230.0,2003.0,8815.0,0.0,65345.0,0.0,136.0,7119.0,304537.0,0.0,1.0,180280.0,PAN-PRI-PRD,59.199999999999996
